0 0 i 
0.000403354 0.0171154 i 
0.00072506 0.0295274 i 
0.000931734 0.0381359 i 
0.00109022 0.0451732 i 
0.00123442 0.051226 i 
0.00130051 0.0539982 i 
0.00373132 0.152151 i 
0.0051603 0.207645 i 
0.00630238 0.250667 i 
0.00729953 0.286866 i 
0.0082422 0.31843 i 
0.00909067 0.346871 i 
0.00988349 0.372847 i 
0.0106528 0.396766 i 
0.0113967 0.419016 i 
0.0121211 0.439849 i 
0.0128305 0.45946 i 
0.0135285 0.477998 i 
0.014218 0.495586 i 
0.0149015 0.512321 i 
0.015581 0.528285 i 
0.0162582 0.543546 i 
0.0169349 0.558163 i 
0.0176123 0.572186 i 
0.0182917 0.585657 i 
0.0189744 0.598616 i 
0.0196615 0.611094 i 
0.0203538 0.623121 i 
0.0210526 0.634724 i 
0.0217586 0.645926 i 
0.0224729 0.656749 i 
0.0231962 0.667211 i 
0.0239296 0.67733 i 
0.0246738 0.687122 i 
0.0254297 0.696601 i 
0.0261983 0.70578 i 
0.0269943 0.714637 i 
0.0277911 0.723254 i 
0.0286032 0.731606 i 
0.0294316 0.739702 i 
0.030277 0.747553 i 
0.0311406 0.755167 i 
0.0320233 0.762551 i 
0.032926 0.769713 i 
0.0338499 0.776661 i 
0.034796 0.783401 i 
0.0357654 0.78994 i 
0.0367593 0.796283 i 
0.0377788 0.802437 i 
0.038825 0.808407 i 
0.0398994 0.814198 i 
0.0410031 0.819815 i 
0.0421375 0.825264 i 
0.043304 0.830548 i 
0.044504 0.835673 i 
0.045739 0.840642 i 
0.0470106 0.84546 i 
0.0483202 0.850131 i 
0.0496695 0.854659 i 
0.0510602 0.859047 i 
0.0524941 0.8633 i 
0.0539729 0.867421 i 
0.0554984 0.871413 i 
0.0570727 0.875281 i 
0.0586975 0.879027 i 
0.0603749 0.882655 i 
0.062107 0.886168 i 
0.0638959 0.88957 i 
0.0657438 0.892863 i 
0.0676529 0.896051 i 
0.0696254 0.899136 i 
0.0716638 0.902122 i 
0.0737703 0.905011 i 
0.0759474 0.907807 i 
0.0781977 0.910513 i 
0.0805236 0.91313 i 
0.0829277 0.915662 i 
0.0854126 0.918112 i 
0.0879811 0.920483 i 
0.0906359 0.922776 i 
0.0933798 0.924994 i 
0.0962155 0.927141 i 
0.0991459 0.929218 i 
0.102174 0.931228 i 
0.105303 0.933173 i 
0.108535 0.935055 i 
0.111874 0.936878 i 
0.115323 0.938642 i 
0.118885 0.940351 i 
0.122564 0.942005 i 
0.126361 0.943608 i 
0.130282 0.945161 i 
0.134329 0.946666 i 
0.138506 0.948126 i 
0.142817 0.949541 i 
0.147265 0.950914 i 
0.151853 0.952246 i 
0.156587 0.953539 i 
0.161469 0.954795 i 
0.166504 0.956014 i 
0.171697 0.9572 i 
0.177051 0.958353 i 
0.182571 0.959474 i 
0.188262 0.960565 i 
0.194129 0.961627 i 
0.200177 0.962661 i 
0.206412 0.96367 i 
0.212838 0.964653 i 
0.219462 0.965612 i 
0.226291 0.966549 i 
0.23333 0.967463 i 
0.240586 0.968357 i 
0.248068 0.969232 i 
0.255782 0.970087 i 
0.263737 0.970925 i 
0.271942 0.971747 i 
0.280406 0.972552 i 
0.28914 0.973343 i 
0.298118 0.974133 i 
0.307424 0.974896 i 
0.317036 0.975647 i 
0.326966 0.976386 i 
0.33723 0.977115 i 
0.347844 0.977834 i 
0.358827 0.978545 i 
0.370198 0.979248 i 
0.38198 0.979944 i 
0.394197 0.980634 i 
0.406877 0.981319 i 
0.420051 0.982 i 
0.433754 0.982678 i 
0.448026 0.983355 i 
0.462912 0.984032 i 
0.478467 0.98471 i 
0.494752 0.985391 i 
0.511842 0.986077 i 
0.529824 0.986769 i 
0.548805 0.987472 i 
0.568919 0.988187 i 
0.590333 0.988919 i 
0.613263 0.989673 i 
0.637997 0.990456 i 
0.664975 0.991267 i 
0.694698 0.992139 i 
0.727998 0.993114 i 
0.766729 0.994165 i 
0.814026 0.9954 i 
0.879562 0.997058 i 
0.946002 0.998699 i 
0.951705 0.998835 i 
0.95822 0.998981 i 
0.965896 0.999165 i 
0.975902 0.999405 i 
1 1 i 
