0 0 i 
0.00323198 0.0103055 i 
0.00561457 0.0178235 i 
0.00724524 0.0230156 i 
0.00855131 0.0272673 i 
0.00969557 0.0309201 i 
0.0102199 0.0325933 i 
0.0290991 0.0919621 i 
0.0399791 0.125826 i 
0.0486116 0.152214 i 
0.0560386 0.174566 i 
0.0626921 0.194279 i 
0.0687987 0.212091 i 
0.0745159 0.228415 i 
0.0798924 0.243607 i 
0.0850104 0.257844 i 
0.0899156 0.271275 i 
0.0946424 0.284016 i 
0.0992179 0.296156 i 
0.103663 0.307767 i 
0.107997 0.318906 i 
0.112232 0.329622 i 
0.116381 0.339954 i 
0.120454 0.349938 i 
0.12446 0.359603 i 
0.128407 0.368974 i 
0.132301 0.378073 i 
0.136148 0.386919 i 
0.139953 0.39553 i 
0.143721 0.403922 i 
0.147456 0.412107 i 
0.151161 0.420099 i 
0.154841 0.427908 i 
0.158498 0.435544 i 
0.162134 0.443017 i 
0.165754 0.450335 i 
0.169358 0.457506 i 
0.172972 0.464508 i 
0.176553 0.471404 i 
0.180125 0.478174 i 
0.183691 0.484821 i 
0.187252 0.491352 i 
0.190809 0.49777 i 
0.194364 0.504082 i 
0.197918 0.51029 i 
0.201474 0.5164 i 
0.205032 0.522414 i 
0.208593 0.528336 i 
0.212159 0.53417 i 
0.215731 0.539919 i 
0.21931 0.545586 i 
0.222897 0.551173 i 
0.226494 0.556683 i 
0.230101 0.562119 i 
0.233719 0.567483 i 
0.23735 0.572778 i 
0.240994 0.578005 i 
0.244653 0.583167 i 
0.248327 0.588266 i 
0.252017 0.593304 i 
0.255724 0.598282 i 
0.25945 0.603203 i 
0.263195 0.608068 i 
0.266959 0.612878 i 
0.270745 0.617636 i 
0.274552 0.622343 i 
0.278383 0.627001 i 
0.282237 0.63161 i 
0.286115 0.636172 i 
0.290019 0.640688 i 
0.293949 0.645161 i 
0.297907 0.649591 i 
0.301894 0.653979 i 
0.305909 0.658326 i 
0.309955 0.662634 i 
0.314032 0.666904 i 
0.318141 0.671137 i 
0.322284 0.675334 i 
0.32646 0.679496 i 
0.330673 0.683624 i 
0.334921 0.687719 i 
0.339208 0.691783 i 
0.343532 0.695816 i 
0.347897 0.699818 i 
0.352303 0.703792 i 
0.35675 0.707738 i 
0.361242 0.711657 i 
0.365778 0.71555 i 
0.37036 0.719418 i 
0.374989 0.723262 i 
0.379668 0.727082 i 
0.384396 0.73088 i 
0.389177 0.734657 i 
0.39401 0.738413 i 
0.398899 0.742149 i 
0.403844 0.745867 i 
0.408848 0.749567 i 
0.413912 0.75325 i 
0.419037 0.756917 i 
0.424227 0.760569 i 
0.429483 0.764208 i 
0.434807 0.767833 i 
0.440202 0.771446 i 
0.44567 0.775049 i 
0.451212 0.778641 i 
0.456833 0.782225 i 
0.462534 0.785801 i 
0.468319 0.78937 i 
0.474191 0.792934 i 
0.480152 0.796493 i 
0.486207 0.80005 i 
0.492358 0.803605 i 
0.49861 0.80716 i 
0.504967 0.810715 i 
0.511433 0.814274 i 
0.518013 0.817836 i 
0.524712 0.821405 i 
0.531535 0.824981 i 
0.538489 0.828566 i 
0.54555 0.832185 i 
0.552783 0.835795 i 
0.560166 0.839422 i 
0.567708 0.843067 i 
0.575417 0.846733 i 
0.583303 0.850423 i 
0.591376 0.854141 i 
0.599648 0.85789 i 
0.608132 0.861673 i 
0.616842 0.865496 i 
0.625795 0.869362 i 
0.635008 0.873278 i 
0.644501 0.877249 i 
0.6543 0.881283 i 
0.664429 0.885388 i 
0.674922 0.889572 i 
0.685814 0.893848 i 
0.697148 0.898227 i 
0.708978 0.902726 i 
0.721366 0.907363 i 
0.73439 0.912163 i 
0.748151 0.917155 i 
0.762776 0.922377 i 
0.778437 0.927882 i 
0.795343 0.933762 i 
0.813903 0.940082 i 
0.834631 0.947031 i 
0.858477 0.954902 i 
0.887406 0.964302 i 
0.927267 0.977032 i 
0.967407 0.98978 i 
0.970849 0.990859 i 
0.974786 0.992064 i 
0.979416 0.993519 i 
0.985451 0.995413 i 
1 1 i 
