0 0 i 
0.00542474 0.007368 i 
0.00942474 0.0127299 i 
0.0121666 0.016436 i 
0.0144199 0.0194212 i 
0.016351 0.0220225 i 
0.0172356 0.0232142 i 
0.0488745 0.0656553 i 
0.0670211 0.0899808 i 
0.0813199 0.109028 i 
0.0935427 0.125243 i 
0.104422 0.139615 i 
0.114343 0.152666 i 
0.123562 0.164683 i 
0.132184 0.175928 i 
0.140338 0.186518 i 
0.148103 0.196561 i 
0.155537 0.206137 i 
0.162686 0.215308 i 
0.169588 0.224124 i 
0.176272 0.232626 i 
0.182762 0.240848 i 
0.189079 0.248817 i 
0.195241 0.256558 i 
0.201262 0.264091 i 
0.207155 0.271434 i 
0.212932 0.278602 i 
0.218602 0.285608 i 
0.224174 0.292464 i 
0.229656 0.299181 i 
0.235055 0.305769 i 
0.240376 0.312236 i 
0.245626 0.318589 i 
0.25081 0.324836 i 
0.255932 0.330983 i 
0.260996 0.337035 i 
0.266007 0.342999 i 
0.270943 0.348904 i 
0.275857 0.354704 i 
0.280726 0.360429 i 
0.285555 0.366082 i 
0.290346 0.371667 i 
0.295102 0.377188 i 
0.299823 0.382647 i 
0.304514 0.388047 i 
0.309176 0.393392 i 
0.31381 0.398683 i 
0.318419 0.403924 i 
0.323005 0.409116 i 
0.327568 0.414261 i 
0.332112 0.419363 i 
0.336636 0.424422 i 
0.341143 0.429441 i 
0.345634 0.434421 i 
0.35011 0.439364 i 
0.354573 0.444272 i 
0.359024 0.449146 i 
0.363464 0.453988 i 
0.367893 0.458798 i 
0.372314 0.46358 i 
0.376728 0.468333 i 
0.381134 0.473059 i 
0.385536 0.47776 i 
0.389932 0.482437 i 
0.394325 0.48709 i 
0.398716 0.49172 i 
0.403104 0.49633 i 
0.407492 0.50092 i 
0.41188 0.505491 i 
0.416269 0.510044 i 
0.42066 0.51458 i 
0.425054 0.5191 i 
0.429452 0.523605 i 
0.433854 0.528096 i 
0.438262 0.532574 i 
0.442676 0.53704 i 
0.447097 0.541494 i 
0.451527 0.545938 i 
0.455965 0.550373 i 
0.460414 0.554798 i 
0.464873 0.559217 i 
0.469344 0.563628 i 
0.473827 0.568033 i 
0.478324 0.572433 i 
0.482835 0.576829 i 
0.487362 0.581222 i 
0.491905 0.585612 i 
0.496466 0.59 i 
0.501045 0.594388 i 
0.505643 0.598776 i 
0.510262 0.603166 i 
0.514902 0.607557 i 
0.519565 0.611951 i 
0.524251 0.61635 i 
0.528963 0.620753 i 
0.533701 0.625163 i 
0.538466 0.629579 i 
0.54326 0.634004 i 
0.548084 0.638438 i 
0.552939 0.642882 i 
0.557827 0.647338 i 
0.56275 0.651806 i 
0.567709 0.656289 i 
0.572705 0.660786 i 
0.577741 0.665301 i 
0.582818 0.669833 i 
0.587938 0.674385 i 
0.593104 0.678958 i 
0.598316 0.683553 i 
0.603578 0.688173 i 
0.608892 0.692819 i 
0.61426 0.697493 i 
0.619685 0.702196 i 
0.62517 0.706932 i 
0.630718 0.711702 i 
0.636332 0.716509 i 
0.642015 0.721356 i 
0.647772 0.726244 i 
0.653606 0.731177 i 
0.659546 0.736134 i 
0.665548 0.741168 i 
0.67164 0.746256 i 
0.677829 0.751404 i 
0.68412 0.756615 i 
0.690522 0.761895 i 
0.697039 0.767249 i 
0.703681 0.772682 i 
0.710457 0.778202 i 
0.717376 0.783815 i 
0.72445 0.78953 i 
0.731691 0.795356 i 
0.739113 0.801302 i 
0.746733 0.807382 i 
0.754569 0.813608 i 
0.762643 0.819997 i 
0.770982 0.826568 i 
0.779614 0.833342 i 
0.788577 0.840346 i 
0.797914 0.847612 i 
0.807681 0.855182 i 
0.817948 0.863105 i 
0.828804 0.871449 i 
0.84037 0.880301 i 
0.852789 0.889809 i 
0.866359 0.900106 i 
0.881438 0.9115 i 
0.8987 0.924489 i 
0.919537 0.940103 i 
0.948107 0.961392 i 
0.976786 0.982764 i 
0.979237 0.984584 i 
0.981995 0.986672 i 
0.9853 0.989118 i 
0.989607 0.992304 i 
1 1 i 
