0.000/0.000,
0.005/0.000,
0.010/0.000,
0.015/0.000,
0.020/0.000,
0.025/0.000,
0.030/0.000,
0.035/0.000,
0.040/0.000,
0.045/0.000,
0.050/0.000,
0.055/0.000,
0.060/0.000,
0.065/0.000,
0.070/0.000,
0.075/0.000,
0.080/0.000,
0.085/0.000,
0.090/0.000,
0.095/0.000,
0.100/0.000,
0.105/0.000,
0.110/0.000,
0.115/0.000,
0.120/0.000,
0.125/0.000,
0.130/0.000,
0.135/0.000,
0.140/0.000,
0.145/0.000,
0.150/0.000,
0.155/0.000,
0.160/0.000,
0.165/0.000,
0.170/0.000,
0.175/0.000,
0.180/0.000,
0.185/0.000,
0.190/0.000,
0.195/0.000,
0.200/0.000,
0.205/0.000,
0.210/0.000,
0.215/0.001,
0.220/0.001,
0.225/0.001,
0.230/0.001,
0.235/0.001,
0.240/0.001,
0.245/0.001,
0.250/0.001,
0.255/0.001,
0.260/0.002,
0.265/0.002,
0.270/0.002,
0.275/0.002,
0.280/0.003,
0.285/0.003,
0.290/0.004,
0.295/0.004,
0.300/0.005,
0.305/0.006,
0.310/0.007,
0.315/0.008,
0.320/0.009,
0.325/0.010,
0.330/0.012,
0.335/0.014,
0.340/0.015,
0.345/0.018,
0.350/0.020,
0.355/0.023,
0.360/0.026,
0.365/0.029,
0.370/0.032,
0.375/0.036,
0.380/0.040,
0.385/0.045,
0.390/0.050,
0.395/0.055,
0.400/0.061,
0.405/0.067,
0.410/0.074,
0.415/0.081,
0.420/0.089,
0.425/0.097,
0.430/0.105,
0.435/0.114,
0.440/0.123,
0.445/0.133,
0.450/0.143,
0.455/0.154,
0.460/0.166,
0.465/0.178,
0.470/0.190,
0.475/0.203,
0.480/0.217,
0.485/0.230,
0.490/0.245,
0.495/0.260,
0.500/0.275,
0.505/0.291,
0.510/0.307,
0.515/0.323,
0.520/0.340,
0.525/0.357,
0.530/0.374,
0.535/0.392,
0.540/0.409,
0.545/0.427,
0.550/0.445,
0.555/0.463,
0.560/0.481,
0.565/0.500,
0.570/0.518,
0.575/0.536,
0.580/0.554,
0.585/0.573,
0.590/0.591,
0.595/0.609,
0.600/0.626,
0.605/0.644,
0.610/0.661,
0.615/0.678,
0.620/0.695,
0.625/0.711,
0.630/0.727,
0.635/0.742,
0.640/0.757,
0.645/0.772,
0.650/0.786,
0.655/0.800,
0.660/0.813,
0.665/0.826,
0.670/0.838,
0.675/0.850,
0.680/0.862,
0.685/0.872,
0.690/0.883,
0.695/0.893,
0.700/0.902,
0.705/0.911,
0.710/0.919,
0.715/0.927,
0.720/0.934,
0.725/0.941,
0.730/0.947,
0.735/0.953,
0.740/0.958,
0.745/0.963,
0.750/0.967,
0.755/0.971,
0.760/0.974,
0.765/0.977,
0.770/0.980,
0.775/0.982,
0.780/0.984,
0.785/0.986,
0.790/0.988,
0.795/0.989,
0.800/0.991,
0.805/0.992,
0.810/0.993,
0.815/0.994,
0.820/0.995,
0.825/0.995,
0.830/0.996,
0.835/0.997,
0.840/0.997,
0.845/0.998,
0.850/0.998,
0.855/0.999,
0.860/0.999,
0.865/0.999,
0.870/0.999,
0.875/1.000,
0.880/1.000,
0.885/1.000,
0.890/1.000,
0.895/1.000,
0.900/1.000,
0.905/1.000,
0.910/1.000,
0.915/1.000,
0.920/1.000,
0.925/1.000,
0.930/1.000,
0.935/1.000,
0.940/1.000,
0.945/1.000,
0.950/1.000,
0.955/1.000,
0.960/1.000,
0.965/1.000,
0.970/1.000,
0.975/1.000,
0.980/1.000,
0.985/1.000,
0.990/1.000,
0.995/1.000