0.000/0.000,
0.005/0.000,
0.010/0.000,
0.015/0.000,
0.020/0.000,
0.025/0.000,
0.030/0.000,
0.035/0.000,
0.040/0.000,
0.045/0.000,
0.050/0.000,
0.055/0.000,
0.060/0.000,
0.065/0.000,
0.070/0.000,
0.075/0.000,
0.080/0.000,
0.085/0.000,
0.090/0.000,
0.095/0.000,
0.100/0.000,
0.105/0.000,
0.110/0.000,
0.115/0.000,
0.120/0.000,
0.125/0.000,
0.130/0.000,
0.135/0.000,
0.140/0.000,
0.145/0.000,
0.150/0.000,
0.155/0.000,
0.160/0.000,
0.165/0.000,
0.170/0.000,
0.175/0.000,
0.180/0.000,
0.185/0.000,
0.190/0.000,
0.195/0.000,
0.200/0.000,
0.205/0.000,
0.210/0.000,
0.215/0.000,
0.220/0.000,
0.225/0.000,
0.230/0.000,
0.235/0.000,
0.240/0.000,
0.245/0.000,
0.250/0.000,
0.255/0.000,
0.260/0.000,
0.265/0.000,
0.270/0.000,
0.275/0.000,
0.280/0.000,
0.285/0.000,
0.290/0.000,
0.295/0.000,
0.300/0.000,
0.305/0.000,
0.310/0.001,
0.315/0.001,
0.320/0.001,
0.325/0.001,
0.330/0.001,
0.335/0.002,
0.340/0.002,
0.345/0.002,
0.350/0.003,
0.355/0.003,
0.360/0.004,
0.365/0.004,
0.370/0.005,
0.375/0.006,
0.380/0.007,
0.385/0.008,
0.390/0.010,
0.395/0.011,
0.400/0.013,
0.405/0.015,
0.410/0.017,
0.415/0.020,
0.420/0.023,
0.425/0.026,
0.430/0.029,
0.435/0.033,
0.440/0.037,
0.445/0.042,
0.450/0.047,
0.455/0.052,
0.460/0.058,
0.465/0.064,
0.470/0.071,
0.475/0.078,
0.480/0.086,
0.485/0.094,
0.490/0.103,
0.495/0.112,
0.500/0.122,
0.505/0.132,
0.510/0.142,
0.515/0.153,
0.520/0.164,
0.525/0.176,
0.530/0.188,
0.535/0.201,
0.540/0.214,
0.545/0.227,
0.550/0.241,
0.555/0.255,
0.560/0.270,
0.565/0.285,
0.570/0.300,
0.575/0.316,
0.580/0.332,
0.585/0.348,
0.590/0.365,
0.595/0.382,
0.600/0.398,
0.605/0.416,
0.610/0.433,
0.615/0.450,
0.620/0.467,
0.625/0.485,
0.630/0.502,
0.635/0.520,
0.640/0.537,
0.645/0.555,
0.650/0.572,
0.655/0.590,
0.660/0.607,
0.665/0.624,
0.670/0.641,
0.675/0.659,
0.680/0.675,
0.685/0.692,
0.690/0.708,
0.695/0.724,
0.700/0.740,
0.705/0.755,
0.710/0.770,
0.715/0.784,
0.720/0.798,
0.725/0.811,
0.730/0.824,
0.735/0.836,
0.740/0.848,
0.745/0.859,
0.750/0.869,
0.755/0.879,
0.760/0.889,
0.765/0.898,
0.770/0.907,
0.775/0.915,
0.780/0.922,
0.785/0.929,
0.790/0.936,
0.795/0.942,
0.800/0.948,
0.805/0.954,
0.810/0.959,
0.815/0.963,
0.820/0.968,
0.825/0.972,
0.830/0.975,
0.835/0.978,
0.840/0.981,
0.845/0.984,
0.850/0.986,
0.855/0.988,
0.860/0.990,
0.865/0.991,
0.870/0.992,
0.875/0.993,
0.880/0.994,
0.885/0.995,
0.890/0.996,
0.895/0.997,
0.900/0.997,
0.905/0.998,
0.910/0.998,
0.915/0.999,
0.920/0.999,
0.925/0.999,
0.930/1.000,
0.935/1.000,
0.940/1.000,
0.945/1.000,
0.950/1.000,
0.955/1.000,
0.960/1.000,
0.965/1.000,
0.970/1.000,
0.975/1.000,
0.980/1.000,
0.985/1.000,
0.990/1.000,
0.995/1.000