0.0 0.0
0.01 0.0238781660407
0.02 0.0483942638564
0.03 0.0734330724692
0.04 0.0988834092243
0.05 0.124639476887
0.06 0.150602197271
0.07 0.176680290991
0.08 0.202790987043
0.09 0.228860331132
0.1 0.2548231169
0.11 0.280622496869
0.12 0.306209346046
0.13 0.331541455538
0.14 0.356582629985
0.15 0.381301754199
0.16 0.405671883183
0.17 0.429669397504
0.18 0.453273253853
0.19 0.476464349446
0.2 0.499225009039
0.21 0.521538595191
0.22 0.543389235899
0.23 0.564761658977
0.24 0.585641119254
0.25 0.606013402849
0.26 0.62586489202
0.27 0.645182674323
0.28 0.663954680756
0.29 0.682169839057
0.3 0.699818230098
0.31 0.716891237362
0.32 0.733381681545
0.33 0.74928393433
0.34 0.764594007305
0.35 0.779309613694
0.36 0.793430202079
0.37 0.806956962551
0.38 0.819892806752
0.39 0.832242324024
0.4 0.844011716476
0.41 0.855208716093
0.42 0.865842487184
0.43 0.87592351752
0.44 0.885463501337
0.45 0.894475217242
0.46 0.902972403732
0.47 0.910969634723
0.48 0.918482197159
0.49 0.925525972355
0.5 0.932117322445
0.51 0.938272982908
0.52 0.944009961897
0.53 0.949345446797
0.54 0.954296718212
0.55 0.958881071435
0.56 0.963115745243
0.57 0.967017857821
0.58 0.97060434949
0.59 0.973891931897
0.6 0.976897043285
0.61 0.979635809454
0.62 0.982124010013
0.63 0.984377049536
0.64 0.986409933214
0.65 0.988237246609
0.66 0.989873139074
0.67 0.991331310401
0.68 0.99262500022
0.69 0.993766979634
0.7 0.994769544546
0.71 0.995644510115
0.72 0.996403205761
0.73 0.997056470152
0.74 0.997614645654
0.75 0.998087571804
0.76 0.998484577492
0.77 0.99881447168
0.78 0.999085532728
0.79 0.999305496598
0.8 0.999481544505
0.81 0.999620290816
0.82 0.999727772298
0.83 0.999809439999
0.84 0.999870155217
0.85 0.999914191066
0.86 0.999945241086
0.87 0.999966436116
0.88 0.999980370324
0.89 0.999989136709
0.9 0.99999437177
0.91 0.999997308246
0.92 0.999998834032
0.93 0.999999554603
0.94 0.999999855698
0.95 0.999999962675
0.96 0.999999993034
0.97 0.999999999224
0.98 0.999999999966
0.99 1.0
1.0 1.0
