0.0 0.0
0.01 1.8323438609e-07
0.02 2.97817357518e-06
0.03 1.52487110484e-05
0.04 4.85416476739e-05
0.05 0.000118908160949
0.06 0.000246518235005
0.07 0.000455120879577
0.08 0.000771403945585
0.09 0.00122430332699
0.1 0.00184430448077
0.11 0.00266277102003
0.12 0.00371132667713
0.13 0.00502130886833
0.14 0.00662330482945
0.15 0.00854677504946
0.16 0.0108197635908
0.17 0.0134686908446
0.18 0.0165182212601
0.19 0.019991196515
0.2 0.0239086233351
0.21 0.0282897046092
0.22 0.0331519024589
0.23 0.0385110223912
0.24 0.0443813084877
0.25 0.0507755406706
0.26 0.0577051263427
0.27 0.0651801800656
0.28 0.0732095863433
0.29 0.0818010419723
0.3 0.0909610757558
0.31 0.100695044631
0.32 0.111007106382
0.33 0.121900170115
0.34 0.133375826502
0.35 0.145434260489
0.36 0.158074149702
0.37 0.171292552129
0.38 0.185084786903
0.39 0.199444312081
0.4 0.214362603297
0.41 0.229829037008
0.42 0.24583078186
0.43 0.262352701387
0.44 0.279377270946
0.45 0.296884511428
0.46 0.314851941908
0.47 0.333254553061
0.48 0.352064802789
0.49 0.371252635216
0.5 0.390785523891
0.51 0.410628539811
0.52 0.43074444459
0.53 0.451093808971
0.54 0.471635156595
0.55 0.49232513284
0.56 0.513118698285
0.57 0.533969346172
0.58 0.554829343005
0.59 0.575649991112
0.6 0.596381911703
0.61 0.61697534654
0.62 0.637380475934
0.63 0.657547750271
0.64 0.677428231785
0.65 0.696973942717
0.66 0.716138215506
0.67 0.734876040116
0.68 0.75314440318
0.69 0.770902613296
0.7 0.788112606598
0.71 0.80473922671
0.72 0.820750473376
0.73 0.836117714531
0.74 0.850815857278
0.75 0.864823474317
0.76 0.878122883678
0.77 0.890700181287
0.78 0.902545227803
0.79 0.913651593303
0.8 0.924016465669
0.81 0.933640530845
0.82 0.942527835351
0.83 0.950685643408
0.84 0.958124302507
0.85 0.964857132159
0.86 0.970900350503
0.87 0.976273052371
0.88 0.980997249987
0.89 0.985097983655
0.9 0.988603504401
0.91 0.991545523717
0.92 0.993959517487
0.93 0.995885062337
0.94 0.997366173992
0.95 0.99845160992
0.96 0.999195094718
0.97 0.999655428988
0.98 0.999896454796
0.99 0.999986878339
1.0 1.0
