0.457414 1 i 
0.46693 0.999516 i 
0.51037 0.992957 i 
0.550082 0.982668 i 
0.587243 0.969829 i 
0.622353 0.95494 i 
0.655703 0.938289 i 
0.687479 0.920065 i 
0.71781 0.900396 i 
0.746786 0.879372 i 
0.774466 0.857053 i 
0.80089 0.833477 i 
0.826077 0.808664 i 
0.85003 0.782616 i 
0.872734 0.75532 i 
0.894156 0.726743 i 
0.914244 0.696831 i 
0.932918 0.665505 i 
0.950063 0.632649 i 
0.965512 0.598098 i 
0.979013 0.561599 i 
0.99015 0.522736 i 
0.998073 0.480659 i 
0.999516 0.46693 i 
