0 0.62578 i 
0.000484781 0.616264 i 
0.00701677 0.572796 i 
0.0171818 0.532961 i 
0.029774 0.495554 i 
0.0442787 0.460058 i 
0.060396 0.426176 i 
0.0779294 0.393709 i 
0.096742 0.362522 i 
0.116736 0.332515 i 
0.137839 0.303619 i 
0.160002 0.275782 i 
0.183189 0.248969 i 
0.207379 0.223158 i 
0.232562 0.198341 i 
0.25874 0.17452 i 
0.285928 0.151707 i 
0.314151 0.12993 i 
0.34345 0.109229 i 
0.373882 0.0896615 i 
0.405528 0.0713075 i 
0.438498 0.054278 i 
0.472949 0.0387283 i 
0.509107 0.0248864 i 
0.547332 0.0131112 i 
0.588287 0.00406694 i 
0.616264 0.000484781 i 
