0.158335 1 i 
0.167736 0.999401 i 
0.209937 0.991602 i 
0.248308 0.979973 i 
0.284402 0.966067 i 
0.31885 0.950515 i 
0.352002 0.933667 i 
0.384081 0.915746 i 
0.415238 0.896903 i 
0.445583 0.877248 i 
0.475195 0.85686 i 
0.504135 0.8358 i 
0.532451 0.814116 i 
0.560177 0.791842 i 
0.587341 0.769006 i 
0.613964 0.745629 i 
0.640061 0.721726 i 
0.665641 0.697306 i 
0.690709 0.672374 i 
0.715266 0.646931 i 
0.739308 0.620973 i 
0.762826 0.594491 i 
0.785808 0.567473 i 
0.808234 0.539899 i 
0.830079 0.511744 i 
0.851309 0.482974 i 
0.871881 0.453546 i 
0.891739 0.423404 i 
0.910808 0.392473 i 
0.928987 0.360652 i 
0.946139 0.327804 i 
0.962064 0.293729 i 
0.976455 0.25812 i 
0.988781 0.220446 i 
0.997893 0.179558 i 
0.999401 0.167736 i 
