0 0.916515 i 
0.000767008 0.907282 i 
0.0103179 0.866833 i 
0.0239249 0.83044 i 
0.0396924 0.796208 i 
0.0569223 0.763437 i 
0.0752519 0.731767 i 
0.0944622 0.700977 i 
0.114409 0.670924 i 
0.134991 0.641506 i 
0.156135 0.61265 i 
0.177786 0.584301 i 
0.199902 0.556417 i 
0.22245 0.528965 i 
0.245406 0.501921 i 
0.268749 0.475264 i 
0.292465 0.448981 i 
0.316543 0.423058 i 
0.340975 0.39749 i 
0.365755 0.372271 i 
0.390884 0.347399 i 
0.416361 0.322876 i 
0.442191 0.298706 i 
0.468379 0.274894 i 
0.494938 0.251453 i 
0.521879 0.228394 i 
0.549222 0.205737 i 
0.576991 0.183506 i 
0.605215 0.16173 i 
0.633934 0.140449 i 
0.663199 0.119715 i 
0.693079 0.0995941 i 
0.723665 0.0801802 i 
0.755089 0.0616038 i 
0.787545 0.04406 i 
0.821348 0.0278634 i 
0.857076 0.0135908 i 
0.896097 0.00261247 i 
0.907282 0.000767008 i 
