% liczba klatek: 404010 
% Bumper: 100.5 
% Liczba wierszy: 1252 
18 200 
18 200 
15 200 
15 100.5 
11 100.5 
11 67.0 
10 67.0 
10 50.25 
7 50.25 
7 16.75 
6 16.75 
6 9.136363636363637 
5 9.136363636363637 
5 7.178571428571429 
4 7.178571428571429 
4 5.025 
3 5.025 
3 3.526315789473684 
2 3.526315789473684 
2 3.2419354838709675 
1 3.2419354838709675 
1 0.9901477832512315 
0 0.9901477832512315 
0 0.16054313099041534 
