% liczba klatek: 404010 
% Bumper: 100.5 
% Liczba wierszy: 1245 
18 200 
18 200 
14 200 
14 100.5 
12 100.5 
12 50.25 
10 50.25 
10 28.714285714285715 
9 28.714285714285715 
9 25.125 
8 25.125 
8 10.05 
7 10.05 
7 7.444444444444445 
6 7.444444444444445 
6 6.7 
5 6.7 
5 4.568181818181818 
4 4.568181818181818 
4 3.140625 
3 3.140625 
3 2.7534246575342465 
2 2.7534246575342465 
2 0.26728723404255317 
1 0.26728723404255317 
1 0.162227602905569 
