% liczba klatek: 404010 
% Bumper: 100.5 
% Liczba wierszy: 1245 
18 0 
18 1 
14 1 
14 2 
12 2 
12 4 
10 4 
10 7 
9 7 
9 8 
8 8 
8 20 
7 20 
7 27 
6 27 
6 30 
5 30 
5 44 
4 44 
4 64 
3 64 
3 73 
2 73 
2 200 
1 200 
1 200 
