
# Curve 0 of 1, 200 points
# Curve title: "xx(z),2/yy(z)"
# x y type
 0.00259  0.00259  i
 0.02461  0.02481  i
 0.04067  0.04128  i
 0.05484  0.05606  i
 0.06790  0.06992  i
 0.08021  0.08319  i
 0.09196  0.09604  i
 0.10326  0.10861  i
 0.11420  0.12095  i
 0.12483  0.13315  i
 0.13520  0.14523  i
 0.14535  0.15722  i
 0.15529  0.16917  i
 0.16507  0.18108  i
 0.17468  0.19298  i
 0.18415  0.20488  i
 0.19349  0.21680  i
 0.20272  0.22874  i
 0.21184  0.24073  i
 0.22086  0.25277  i
 0.22979  0.26486  i
 0.23863  0.27703  i
 0.24740  0.28927  i
 0.25609  0.30159  i
 0.26472  0.31400  i
 0.27328  0.32650  i
 0.28179  0.33911  i
 0.29024  0.35182  i
 0.29863  0.36465  i
 0.30698  0.37759  i
 0.31529  0.39066  i
 0.32355  0.40386  i
 0.33177  0.41720  i
 0.33995  0.43067  i
 0.34809  0.44429  i
 0.35621  0.45807  i
 0.36429  0.47199  i
 0.37234  0.48608  i
 0.38036  0.50033  i
 0.38835  0.51476  i
 0.39632  0.52936  i
 0.40427  0.54414  i
 0.41219  0.55911  i
 0.42010  0.57428  i
 0.42798  0.58964  i
 0.43584  0.60520  i
 0.44369  0.62097  i
 0.45152  0.63696  i
 0.45934  0.65317  i
 0.46714  0.66960  i
 0.47493  0.68627  i
 0.48271  0.70318  i
 0.49047  0.72033  i
 0.49823  0.73773  i
 0.50597  0.75539  i
 0.51371  0.77331  i
 0.52143  0.79151  i
 0.52915  0.80998  i
 0.53687  0.82874  i
 0.54458  0.84780  i
 0.55228  0.86715  i
 0.55998  0.88681  i
 0.56767  0.90680  i
 0.57537  0.92710  i
 0.58305  0.94774  i
 0.59074  0.96872  i
 0.59843  0.99005  i
 0.60611  1.01175  i
 0.61380  1.03381  i
 0.62148  1.05626  i
 0.62917  1.07909  i
 0.63686  1.10232  i
 0.64455  1.12597  i
 0.65224  1.15004  i
 0.65993  1.17454  i
 0.66763  1.19949  i
 0.67534  1.22490  i
 0.68305  1.25077  i
 0.69076  1.27713  i
 0.69848  1.30399  i
 0.70620  1.33136  i
 0.71393  1.35926  i
 0.72167  1.38769  i
 0.72942  1.41668  i
 0.73717  1.44625  i
 0.74493  1.47640  i
 0.75270  1.50716  i
 0.76048  1.53854  i
 0.76827  1.57056  i
 0.77607  1.60325  i
 0.78388  1.63661  i
 0.79171  1.67068  i
 0.79954  1.70547  i
 0.80738  1.74101  i
 0.81524  1.77731  i
 0.82311  1.81441  i
 0.83100  1.85232  i
 0.83890  1.89108  i
 0.84681  1.93071  i
 0.85473  1.97123  i
 0.86268  2.01269  i
 0.87063  2.05510  i
 0.87861  2.09849  i
 0.88660  2.14292  i
 0.89460  2.18840  i
 0.90263  2.23497  i
 0.91067  2.28267  i
 0.91873  2.33154  i
 0.92681  2.38162  i
 0.93491  2.43296  i
 0.94303  2.48559  i
 0.95117  2.53956  i
 0.95932  2.59493  i
 0.96750  2.65175  i
 0.97571  2.71006  i
 0.98393  2.76992  i
 0.99218  2.83140  i
 1.00045  2.89455  i
 1.00874  2.95944  i
 1.01706  3.02614  i
 1.02540  3.09472  i
 1.03377  3.16525  i
 1.04216  3.23781  i
 1.05058  3.31249  i
 1.05903  3.38937  i
 1.06750  3.46854  i
 1.07600  3.55011  i
 1.08453  3.63417  i
 1.09309  3.72083  i
 1.10168  3.81021  i
 1.11030  3.90243  i
 1.11895  3.99761  i
 1.12763  4.09589  i
 1.13634  4.19741  i
 1.14509  4.30233  i
 1.15387  4.41080  i
 

