5.55112e-017 0.877268 i 
0.000658067 0.867927 i 
0.00909211 0.826361 i 
0.02146 0.788729 i 
0.0360715 0.75334 i 
0.0522626 0.719531 i 
0.0696732 0.686942 i 
0.0880795 0.655348 i 
0.107331 0.624599 i 
0.127321 0.594589 i 
0.14797 0.565239 i 
0.16922 0.536489 i 
0.191025 0.508294 i 
0.21335 0.480619 i 
0.236168 0.453436 i 
0.259458 0.426726 i 
0.283205 0.400473 i 
0.307397 0.374665 i 
0.332028 0.349297 i 
0.357096 0.324364 i 
0.3826 0.299868 i 
0.408544 0.275813 i 
0.434937 0.252206 i 
0.461792 0.22906 i 
0.489124 0.206392 i 
0.516956 0.184225 i 
0.545319 0.162587 i 
0.574249 0.141518 i 
0.603796 0.121065 i 
0.634026 0.101294 i 
0.665022 0.0822909 i 
0.696905 0.0641738 i 
0.729843 0.0471119 i 
0.764093 0.0313616 i 
0.800082 0.0173501 i 
0.83865 0.00591814 i 
0.867927 0.000658067 i 
