0 1 i 
0.005 0.995 i 
0.03 0.97 i 
0.055 0.945 i 
0.08 0.92 i 
0.105 0.895 i 
0.13 0.87 i 
0.155 0.845 i 
0.18 0.82 i 
0.205 0.795 i 
0.23 0.77 i 
0.255 0.745 i 
0.28 0.72 i 
0.305 0.695 i 
0.33 0.67 i 
0.355 0.645 i 
0.38 0.62 i 
0.405 0.595 i 
0.43 0.57 i 
0.455 0.545 i 
0.48 0.52 i 
0.505 0.495 i 
0.53 0.47 i 
0.555 0.445 i 
0.58 0.42 i 
0.605 0.395 i 
0.63 0.37 i 
0.655 0.345 i 
0.68 0.32 i 
0.705 0.295 i 
0.73 0.27 i 
0.755 0.245 i 
0.78 0.22 i 
0.805 0.195 i 
0.83 0.17 i 
0.855 0.145 i 
0.88 0.12 i 
0.905 0.095 i 
0.93 0.07 i 
0.955 0.045 i 
0.98 0.02 i 
0.995 0.005 i 
