0.132073 0.999342 i 
0.173639 0.990908 i 
0.211271 0.97854 i 
0.24666 0.963928 i 
0.280469 0.947737 i 
0.313058 0.930327 i 
0.344652 0.911921 i 
0.375401 0.892669 i 
0.405411 0.872679 i 
0.434761 0.85203 i 
0.463511 0.83078 i 
0.491706 0.808975 i 
0.519381 0.78665 i 
0.546564 0.763832 i 
0.573274 0.740542 i 
0.599527 0.716795 i 
0.625335 0.692603 i 
0.650703 0.667972 i 
0.675636 0.642904 i 
0.700132 0.6174 i 
0.724187 0.591456 i 
0.747794 0.565063 i 
0.77094 0.538208 i 
0.793608 0.510876 i 
0.815775 0.483044 i 
0.837413 0.454681 i 
0.858482 0.425751 i 
0.878935 0.396204 i 
0.898706 0.365974 i 
0.917709 0.334978 i 
0.935826 0.303095 i 
0.952888 0.270157 i 
0.968638 0.235907 i 
0.98265 0.199918 i 
0.994082 0.16135 i 
0.999342 0.132073 i 
