0.0525825 1 i 
0.0616515 0.999069 i 
0.10057 0.987988 i 
0.135396 0.972813 i 
0.168221 0.955638 i 
0.199748 0.937166 i 
0.230327 0.917744 i 
0.260159 0.897577 i 
0.289376 0.876794 i 
0.318068 0.855486 i 
0.3463 0.833718 i 
0.37412 0.811537 i 
0.401564 0.788982 i 
0.428662 0.766079 i 
0.455434 0.742851 i 
0.481898 0.719316 i 
0.508068 0.695486 i 
0.533954 0.671372 i 
0.559563 0.64698 i 
0.584899 0.622316 i 
0.609966 0.597383 i 
0.634763 0.572181 i 
0.659291 0.546708 i 
0.683543 0.520961 i 
0.707516 0.494933 i 
0.731199 0.468616 i 
0.754581 0.441999 i 
0.777648 0.415065 i 
0.800379 0.387797 i 
0.82275 0.360167 i 
0.844728 0.332145 i 
0.866271 0.303689 i 
0.887324 0.274742 i 
0.907811 0.245228 i 
0.927623 0.21504 i 
0.946599 0.184016 i 
0.964476 0.151893 i 
0.980772 0.11819 i 
0.994364 0.081782 i 
0.999069 0.0616515 i 
