0.2 1 i 
0.209445 0.999445 i 
0.252142 0.992142 i 
0.291105 0.981105 i 
0.327766 0.967766 i 
0.362724 0.952724 i 
0.396317 0.936317 i 
0.428763 0.918763 i 
0.460211 0.900211 i 
0.490772 0.880772 i 
0.520524 0.860524 i 
0.54953 0.83953 i 
0.577835 0.817835 i 
0.605476 0.795476 i 
0.632479 0.772479 i 
0.658864 0.748864 i 
0.684642 0.724642 i 
0.709821 0.699821 i 
0.734403 0.674403 i 
0.758383 0.648383 i 
0.781753 0.621753 i 
0.804498 0.594498 i 
0.826595 0.566595 i 
0.848014 0.538014 i 
0.868716 0.508716 i 
0.888648 0.478648 i 
0.907744 0.447744 i 
0.925911 0.415911 i 
0.943028 0.383028 i 
0.95892 0.34892 i 
0.973331 0.313331 i 
0.985844 0.275844 i 
0.995662 0.235662 i 
0.999445 0.209445 i 
