# bumper:   25.5
# total:    2500
# positive: 2012
# negative: 488
0.0007904903231199661   0.0004
0.0007904903231199661   0.0008
0.0007904903231199661   0.0012
0.0019304541362277093   0.0016
0.0019304541362277093   0.002
0.0038659201394728076   0.0024
0.0038659201394728076   0.0028
0.0038659201394728076   0.0032
0.0038659201394728076   0.0036
0.0038659201394728076   0.004
0.0038659201394728076   0.0044
0.006737946999085467   0.0048
0.006737946999085467   0.0052
0.006737946999085467   0.0056
0.006737946999085467   0.006
0.006737946999085467   0.0064
0.006737946999085467   0.0068
0.006737946999085467   0.0072
0.006737946999085467   0.0076
0.006737946999085467   0.008
0.010615346461976673   0.0084
0.010615346461976673   0.0088
0.010615346461976673   0.0092
0.010615346461976673   0.0096
0.010615346461976673   0.01
0.010615346461976673   0.0104
0.010615346461976673   0.0108
0.010615346461976673   0.0112
0.010615346461976673   0.0116
0.010615346461976673   0.012
0.010615346461976673   0.0124
0.010615346461976673   0.0128
0.010615346461976673   0.0132
0.010615346461976673   0.0136
0.010615346461976673   0.014
0.010615346461976673   0.0144
0.015503853599009314   0.0148
0.015503853599009314   0.0152
0.015503853599009314   0.0156
0.015503853599009314   0.016
0.015503853599009314   0.0164
0.015503853599009314   0.0168
0.015503853599009314   0.0172
0.015503853599009314   0.0176
0.015503853599009314   0.018
0.015503853599009314   0.0184
0.015503853599009314   0.0188
0.015503853599009314   0.0192
0.015503853599009314   0.0196
0.015503853599009314   0.02
0.015503853599009314   0.0204
0.015503853599009314   0.0208
0.015503853599009314   0.0212
0.015503853599009314   0.0216
0.015503853599009314   0.022
0.015503853599009314   0.0224
0.02136173917500705   0.0228
0.02136173917500705   0.0232
0.02136173917500705   0.0236
0.02136173917500705   0.024
0.02136173917500705   0.0244
0.02136173917500705   0.0248
0.02136173917500705   0.0252
0.02136173917500705   0.0256
0.02136173917500705   0.026
0.02136173917500705   0.0264
0.02136173917500705   0.0268
0.02136173917500705   0.0272
0.02136173917500705   0.0276
0.02136173917500705   0.028
0.02136173917500705   0.0284
0.02136173917500705   0.0288
0.02136173917500705   0.0292
0.02136173917500705   0.0296
0.02136173917500705   0.03
0.02136173917500705   0.0304
0.02136173917500705   0.0308
0.02136173917500705   0.0312
0.028115659748972035   0.0316
0.028115659748972035   0.032
0.028115659748972035   0.0324
0.028115659748972035   0.0328
0.028115659748972035   0.0332
0.028115659748972035   0.0336
0.028115659748972035   0.034
0.028115659748972035   0.0344
0.028115659748972035   0.0348
0.028115659748972035   0.0352
0.028115659748972035   0.0356
0.028115659748972035   0.036
0.028115659748972035   0.0364
0.028115659748972035   0.0368
0.028115659748972035   0.0372
0.028115659748972035   0.0376
0.028115659748972035   0.038
0.028115659748972035   0.0384
0.028115659748972035   0.0388
0.028115659748972035   0.0392
0.028115659748972035   0.0396
0.028115659748972035   0.04
0.028115659748972035   0.0404
0.028115659748972035   0.0408
0.028115659748972035   0.0412
0.028115659748972035   0.0416
0.028115659748972035   0.042
0.028115659748972035   0.0424
0.035673993347252395   0.0428
0.035673993347252395   0.0432
0.035673993347252395   0.0436
0.035673993347252395   0.044
0.035673993347252395   0.0444
0.035673993347252395   0.0448
0.035673993347252395   0.0452
0.035673993347252395   0.0456
0.035673993347252395   0.046
0.035673993347252395   0.0464
0.035673993347252395   0.0468
0.035673993347252395   0.0472
0.035673993347252395   0.0476
0.035673993347252395   0.048
0.035673993347252395   0.0484
0.035673993347252395   0.0488
0.035673993347252395   0.0492
0.035673993347252395   0.0496
0.035673993347252395   0.05
0.035673993347252395   0.0504
0.035673993347252395   0.0508
0.035673993347252395   0.0512
0.035673993347252395   0.0516
0.035673993347252395   0.052
0.035673993347252395   0.0524
0.035673993347252395   0.0528
0.035673993347252395   0.0532
0.035673993347252395   0.0536
0.035673993347252395   0.054
0.035673993347252395   0.0544
0.035673993347252395   0.0548
0.035673993347252395   0.0552
0.04393693362340742   0.0556
0.04393693362340742   0.056
0.04393693362340742   0.0564
0.04393693362340742   0.0568
0.04393693362340742   0.0572
0.04393693362340742   0.0576
0.04393693362340742   0.058
0.04393693362340742   0.0584
0.04393693362340742   0.0588
0.04393693362340742   0.0592
0.04393693362340742   0.0596
0.04393693362340742   0.06
0.04393693362340742   0.0604
0.04393693362340742   0.0608
0.04393693362340742   0.0612
0.04393693362340742   0.0616
0.04393693362340742   0.062
0.04393693362340742   0.0624
0.04393693362340742   0.0628
0.04393693362340742   0.0632
0.04393693362340742   0.0636
0.04393693362340742   0.064
0.04393693362340742   0.0644
0.04393693362340742   0.0648
0.04393693362340742   0.0652
0.04393693362340742   0.0656
0.04393693362340742   0.066
0.04393693362340742   0.0664
0.04393693362340742   0.0668
0.04393693362340742   0.0672
0.04393693362340742   0.0676
0.04393693362340742   0.068
0.04393693362340742   0.0684
0.04393693362340742   0.0688
0.04393693362340742   0.0692
0.05280357033430051   0.0696
0.05280357033430051   0.07
0.05280357033430051   0.0704
0.05280357033430051   0.0708
0.05280357033430051   0.0712
0.05280357033430051   0.0716
0.05280357033430051   0.072
0.05280357033430051   0.0724
0.05280357033430051   0.0728
0.05280357033430051   0.0732
0.05280357033430051   0.0736
0.05280357033430051   0.074
0.05280357033430051   0.0744
0.05280357033430051   0.0748
0.05280357033430051   0.0752
0.05280357033430051   0.0756
0.05280357033430051   0.076
0.05280357033430051   0.0764
0.05280357033430051   0.0768
0.05280357033430051   0.0772
0.05280357033430051   0.0776
0.05280357033430051   0.078
0.05280357033430051   0.0784
0.05280357033430051   0.0788
0.05280357033430051   0.0792
0.05280357033430051   0.0796
0.05280357033430051   0.08
0.05280357033430051   0.0804
0.05280357033430051   0.0808
0.05280357033430051   0.0812
0.05280357033430051   0.0816
0.05280357033430051   0.082
0.05280357033430051   0.0824
0.05280357033430051   0.0828
0.05280357033430051   0.0832
0.05280357033430051   0.0836
0.05280357033430051   0.084
0.05280357033430051   0.0844
0.05280357033430051   0.0848
0.05280357033430051   0.0852
0.06217652402211632   0.0856
0.06217652402211632   0.086
0.06217652402211632   0.0864
0.06217652402211632   0.0868
0.06217652402211632   0.0872
0.06217652402211632   0.0876
0.06217652402211632   0.088
0.06217652402211632   0.0884
0.06217652402211632   0.0888
0.06217652402211632   0.0892
0.06217652402211632   0.0896
0.06217652402211632   0.09
0.06217652402211632   0.0904
0.06217652402211632   0.0908
0.06217652402211632   0.0912
0.06217652402211632   0.0916
0.06217652402211632   0.092
0.06217652402211632   0.0924
0.06217652402211632   0.0928
0.06217652402211632   0.0932
0.06217652402211632   0.0936
0.06217652402211632   0.094
0.06217652402211632   0.0944
0.06217652402211632   0.0948
0.06217652402211632   0.0952
0.06217652402211632   0.0956
0.06217652402211632   0.096
0.06217652402211632   0.0964
0.06217652402211632   0.0968
0.06217652402211632   0.0972
0.06217652402211632   0.0976
0.06217652402211632   0.098
0.06217652402211632   0.0984
0.06217652402211632   0.0988
0.06217652402211632   0.0992
0.06217652402211632   0.0996
0.06217652402211632   0.1
0.07196474394172296   0.1004
0.07196474394172296   0.1008
0.07196474394172296   0.1012
0.07196474394172296   0.1016
0.07196474394172296   0.102
0.07196474394172296   0.1024
0.07196474394172296   0.1028
0.07196474394172296   0.1032
0.07196474394172296   0.1036
0.07196474394172296   0.104
0.07196474394172296   0.1044
0.07196474394172296   0.1048
0.07196474394172296   0.1052
0.07196474394172296   0.1056
0.07196474394172296   0.106
0.07196474394172296   0.1064
0.07196474394172296   0.1068
0.07196474394172296   0.1072
0.07196474394172296   0.1076
0.07196474394172296   0.108
0.07196474394172296   0.1084
0.07196474394172296   0.1088
0.07196474394172296   0.1092
0.07196474394172296   0.1096
0.07196474394172296   0.11
0.07196474394172296   0.1104
0.07196474394172296   0.1108
0.07196474394172296   0.1112
0.07196474394172296   0.1116
0.07196474394172296   0.112
0.07196474394172296   0.1124
0.0820849986238988   0.1128
0.0820849986238988   0.1132
0.0820849986238988   0.1136
0.0820849986238988   0.114
0.0820849986238988   0.1144
0.0820849986238988   0.1148
0.0820849986238988   0.1152
0.0820849986238988   0.1156
0.0820849986238988   0.116
0.0820849986238988   0.1164
0.0820849986238988   0.1168
0.0820849986238988   0.1172
0.0820849986238988   0.1176
0.0820849986238988   0.118
0.0820849986238988   0.1184
0.0820849986238988   0.1188
0.0820849986238988   0.1192
0.0820849986238988   0.1196
0.0820849986238988   0.12
0.0820849986238988   0.1204
0.0820849986238988   0.1208
0.0820849986238988   0.1212
0.0820849986238988   0.1216
0.0820849986238988   0.122
0.0820849986238988   0.1224
0.0820849986238988   0.1228
0.0820849986238988   0.1232
0.0820849986238988   0.1236
0.0820849986238988   0.124
0.0820849986238988   0.1244
0.0820849986238988   0.1248
0.0820849986238988   0.1252
0.0820849986238988   0.1256
0.09246247606291999   0.126
0.09246247606291999   0.1264
0.09246247606291999   0.1268
0.09246247606291999   0.1272
0.09246247606291999   0.1276
0.09246247606291999   0.128
0.09246247606291999   0.1284
0.09246247606291999   0.1288
0.09246247606291999   0.1292
0.09246247606291999   0.1296
0.09246247606291999   0.13
0.09246247606291999   0.1304
0.09246247606291999   0.1308
0.09246247606291999   0.1312
0.09246247606291999   0.1316
0.09246247606291999   0.132
0.09246247606291999   0.1324
0.09246247606291999   0.1328
0.09246247606291999   0.1332
0.09246247606291999   0.1336
0.09246247606291999   0.134
0.09246247606291999   0.1344
0.09246247606291999   0.1348
0.09246247606291999   0.1352
0.09246247606291999   0.1356
0.09246247606291999   0.136
0.09246247606291999   0.1364
0.09246247606291999   0.1368
0.09246247606291999   0.1372
0.09246247606291999   0.1376
0.09246247606291999   0.138
0.09246247606291999   0.1384
0.09246247606291999   0.1388
0.09246247606291999   0.1392
0.09246247606291999   0.1396
0.09246247606291999   0.14
0.09246247606291999   0.1404
0.09246247606291999   0.1408
0.10303080346176416   0.1412
0.10303080346176416   0.1416
0.10303080346176416   0.142
0.10303080346176416   0.1424
0.10303080346176416   0.1428
0.10303080346176416   0.1432
0.10303080346176416   0.1436
0.10303080346176416   0.144
0.10303080346176416   0.1444
0.10303080346176416   0.1448
0.10303080346176416   0.1452
0.10303080346176416   0.1456
0.10303080346176416   0.146
0.10303080346176416   0.1464
0.10303080346176416   0.1468
0.10303080346176416   0.1472
0.10303080346176416   0.1476
0.10303080346176416   0.148
0.10303080346176416   0.1484
0.10303080346176416   0.1488
0.10303080346176416   0.1492
0.11373170793120883   0.1496
0.11373170793120883   0.15
0.11373170793120883   0.1504
0.11373170793120883   0.1508
0.11373170793120883   0.1512
0.11373170793120883   0.1516
0.11373170793120883   0.152
0.11373170793120883   0.1524
0.11373170793120883   0.1528
0.11373170793120883   0.1532
0.11373170793120883   0.1536
0.11373170793120883   0.154
0.11373170793120883   0.1544
0.11373170793120883   0.1548
0.11373170793120883   0.1552
0.11373170793120883   0.1556
0.11373170793120883   0.156
0.11373170793120883   0.1564
0.11373170793120883   0.1568
0.11373170793120883   0.1572
0.11373170793120883   0.1576
0.11373170793120883   0.158
0.12451447144412296   0.1584
0.12451447144412296   0.1588
0.12451447144412296   0.1592
0.12451447144412296   0.1596
0.12451447144412296   0.16
0.12451447144412296   0.1604
0.12451447144412296   0.1608
0.12451447144412296   0.1612
0.12451447144412296   0.1616
0.12451447144412296   0.162
0.12451447144412296   0.1624
0.12451447144412296   0.1628
0.12451447144412296   0.1632
0.12451447144412296   0.1636
0.12451447144412296   0.164
0.12451447144412296   0.1644
0.12451447144412296   0.1648
0.12451447144412296   0.1652
0.12451447144412296   0.1656
0.12451447144412296   0.166
0.12451447144412296   0.1664
0.12451447144412296   0.1668
0.12451447144412296   0.1672
0.12451447144412296   0.1676
0.12451447144412296   0.168
0.12451447144412296   0.1684
0.12451447144412296   0.1688
0.12451447144412296   0.1692
0.12451447144412296   0.1696
0.12451447144412296   0.17
0.12451447144412296   0.1704
0.12451447144412296   0.1708
0.12451447144412296   0.1712
0.1353352832366127   0.1716
0.1353352832366127   0.172
0.1353352832366127   0.1724
0.1353352832366127   0.1728
0.1353352832366127   0.1732
0.1353352832366127   0.1736
0.1353352832366127   0.174
0.1353352832366127   0.1744
0.1353352832366127   0.1748
0.1353352832366127   0.1752
0.1353352832366127   0.1756
0.1353352832366127   0.176
0.1353352832366127   0.1764
0.1353352832366127   0.1768
0.1353352832366127   0.1772
0.1353352832366127   0.1776
0.1353352832366127   0.178
0.1353352832366127   0.1784
0.1353352832366127   0.1788
0.1353352832366127   0.1792
0.1353352832366127   0.1796
0.1353352832366127   0.18
0.1353352832366127   0.1804
0.1353352832366127   0.1808
0.1353352832366127   0.1812
0.1353352832366127   0.1816
0.1353352832366127   0.182
0.1353352832366127   0.1824
0.1353352832366127   0.1828
0.1353352832366127   0.1832
0.1353352832366127   0.1836
0.1353352832366127   0.184
0.1353352832366127   0.1844
0.1353352832366127   0.1848
0.1353352832366127   0.1852
0.1461565570715425   0.1856
0.1461565570715425   0.186
0.1461565570715425   0.1864
0.1461565570715425   0.1868
0.1461565570715425   0.1872
0.1461565570715425   0.1876
0.1461565570715425   0.188
0.1461565570715425   0.1884
0.1461565570715425   0.1888
0.1461565570715425   0.1892
0.1461565570715425   0.1896
0.1461565570715425   0.19
0.1461565570715425   0.1904
0.1461565570715425   0.1908
0.1461565570715425   0.1912
0.1461565570715425   0.1916
0.1461565570715425   0.192
0.1461565570715425   0.1924
0.1461565570715425   0.1928
0.1461565570715425   0.1932
0.1461565570715425   0.1936
0.1461565570715425   0.194
0.1461565570715425   0.1944
0.1461565570715425   0.1948
0.1461565570715425   0.1952
0.1461565570715425   0.1956
0.1461565570715425   0.196
0.1461565570715425   0.1964
0.1569462558207136   0.1968
0.1569462558207136   0.1972
0.1569462558207136   0.1976
0.1569462558207136   0.198
0.1569462558207136   0.1984
0.1569462558207136   0.1988
0.1569462558207136   0.1992
0.1569462558207136   0.1996
0.1569462558207136   0.2
0.1569462558207136   0.2004
0.1569462558207136   0.2008
0.1569462558207136   0.2012
0.1569462558207136   0.2016
0.1569462558207136   0.202
0.1569462558207136   0.2024
0.1569462558207136   0.2028
0.1569462558207136   0.2032
0.1569462558207136   0.2036
0.1569462558207136   0.204
0.1569462558207136   0.2044
0.1569462558207136   0.2048
0.1569462558207136   0.2052
0.1569462558207136   0.2056
0.1569462558207136   0.206
0.1569462558207136   0.2064
0.1569462558207136   0.2068
0.1569462558207136   0.2072
0.1569462558207136   0.2076
0.1569462558207136   0.208
0.1569462558207136   0.2084
0.16767724875179707   0.2088
0.16767724875179707   0.2092
0.16767724875179707   0.2096
0.16767724875179707   0.21
0.16767724875179707   0.2104
0.16767724875179707   0.2108
0.16767724875179707   0.2112
0.16767724875179707   0.2116
0.16767724875179707   0.212
0.16767724875179707   0.2124
0.16767724875179707   0.2128
0.16767724875179707   0.2132
0.16767724875179707   0.2136
0.16767724875179707   0.214
0.16767724875179707   0.2144
0.16767724875179707   0.2148
0.16767724875179707   0.2152
0.16767724875179707   0.2156
0.16767724875179707   0.216
0.16767724875179707   0.2164
0.16767724875179707   0.2168
0.16767724875179707   0.2172
0.16767724875179707   0.2176
0.16767724875179707   0.218
0.16767724875179707   0.2184
0.16767724875179707   0.2188
0.16767724875179707   0.2192
0.16767724875179707   0.2196
0.16767724875179707   0.22
0.16767724875179707   0.2204
0.16767724875179707   0.2208
0.16767724875179707   0.2212
0.16767724875179707   0.2216
0.17832671545615317   0.222
0.17832671545615317   0.2224
0.17832671545615317   0.2228
0.17832671545615317   0.2232
0.17832671545615317   0.2236
0.17832671545615317   0.224
0.17832671545615317   0.2244
0.17832671545615317   0.2248
0.17832671545615317   0.2252
0.17832671545615317   0.2256
0.17832671545615317   0.226
0.17832671545615317   0.2264
0.17832671545615317   0.2268
0.17832671545615317   0.2272
0.17832671545615317   0.2276
0.17832671545615317   0.228
0.17832671545615317   0.2284
0.17832671545615317   0.2288
0.17832671545615317   0.2292
0.17832671545615317   0.2296
0.17832671545615317   0.23
0.17832671545615317   0.2304
0.17832671545615317   0.2308
0.17832671545615317   0.2312
0.17832671545615317   0.2316
0.17832671545615317   0.232
0.18887560283756183   0.2324
0.18887560283756183   0.2328
0.18887560283756183   0.2332
0.18887560283756183   0.2336
0.18887560283756183   0.234
0.18887560283756183   0.2344
0.18887560283756183   0.2348
0.18887560283756183   0.2352
0.18887560283756183   0.2356
0.18887560283756183   0.236
0.18887560283756183   0.2364
0.18887560283756183   0.2368
0.18887560283756183   0.2372
0.18887560283756183   0.2376
0.18887560283756183   0.238
0.18887560283756183   0.2384
0.18887560283756183   0.2388
0.19930813677931222   0.2392
0.19930813677931222   0.2396
0.19930813677931222   0.24
0.19930813677931222   0.2404
0.19930813677931222   0.2408
0.19930813677931222   0.2412
0.19930813677931222   0.2416
0.19930813677931222   0.242
0.19930813677931222   0.2424
0.19930813677931222   0.2428
0.19930813677931222   0.2432
0.19930813677931222   0.2436
0.19930813677931222   0.244
0.19930813677931222   0.2444
0.19930813677931222   0.2448
0.19930813677931222   0.2452
0.19930813677931222   0.2456
0.19930813677931222   0.246
0.19930813677931222   0.2464
0.19930813677931222   0.2468
0.19930813677931222   0.2472
0.19930813677931222   0.2476
0.2096113871510978   0.248
0.2096113871510978   0.2484
0.2096113871510978   0.2488
0.2096113871510978   0.2492
0.2096113871510978   0.2496
0.2096113871510978   0.25
0.2096113871510978   0.2504
0.2096113871510978   0.2508
0.2096113871510978   0.2512
0.2096113871510978   0.2516
0.2096113871510978   0.252
0.2096113871510978   0.2524
0.2096113871510978   0.2528
0.2096113871510978   0.2532
0.2096113871510978   0.2536
0.2096113871510978   0.254
0.2096113871510978   0.2544
0.2096113871510978   0.2548
0.2096113871510978   0.2552
0.2096113871510978   0.2556
0.2096113871510978   0.256
0.2096113871510978   0.2564
0.2096113871510978   0.2568
0.2096113871510978   0.2572
0.2096113871510978   0.2576
0.2096113871510978   0.258
0.2096113871510978   0.2584
0.2096113871510978   0.2588
0.2096113871510978   0.2592
0.2096113871510978   0.2596
0.2197748831002536   0.26
0.2197748831002536   0.2604
0.2197748831002536   0.2608
0.2197748831002536   0.2612
0.2197748831002536   0.2616
0.2197748831002536   0.262
0.2197748831002536   0.2624
0.2197748831002536   0.2628
0.2197748831002536   0.2632
0.2197748831002536   0.2636
0.2197748831002536   0.264
0.2197748831002536   0.2644
0.2197748831002536   0.2648
0.2197748831002536   0.2652
0.2197748831002536   0.2656
0.2197748831002536   0.266
0.2197748831002536   0.2664
0.2197748831002536   0.2668
0.2197748831002536   0.2672
0.2197748831002536   0.2676
0.2197748831002536   0.268
0.2197748831002536   0.2684
0.2197748831002536   0.2688
0.22979027467301683   0.2692
0.22979027467301683   0.2696
0.22979027467301683   0.27
0.22979027467301683   0.2704
0.22979027467301683   0.2708
0.22979027467301683   0.2712
0.22979027467301683   0.2716
0.22979027467301683   0.272
0.22979027467301683   0.2724
0.22979027467301683   0.2728
0.22979027467301683   0.2732
0.22979027467301683   0.2736
0.22979027467301683   0.274
0.22979027467301683   0.2744
0.22979027467301683   0.2748
0.22979027467301683   0.2752
0.22979027467301683   0.2756
0.22979027467301683   0.276
0.22979027467301683   0.2764
0.22979027467301683   0.2768
0.22979027467301683   0.2772
0.22979027467301683   0.2776
0.22979027467301683   0.278
0.22979027467301683   0.2784
0.22979027467301683   0.2788
0.22979027467301683   0.2792
0.2396510364417758   0.2796
0.2396510364417758   0.28
0.2396510364417758   0.2804
0.2396510364417758   0.2808
0.2396510364417758   0.2812
0.2396510364417758   0.2816
0.2396510364417758   0.282
0.2396510364417758   0.2824
0.2396510364417758   0.2828
0.2396510364417758   0.2832
0.2396510364417758   0.2836
0.2396510364417758   0.284
0.2396510364417758   0.2844
0.2396510364417758   0.2848
0.2396510364417758   0.2852
0.2396510364417758   0.2856
0.2396510364417758   0.286
0.2396510364417758   0.2864
0.2396510364417758   0.2868
0.2396510364417758   0.2872
0.24935220877729622   0.2876
0.24935220877729622   0.288
0.24935220877729622   0.2884
0.24935220877729622   0.2888
0.24935220877729622   0.2892
0.24935220877729622   0.2896
0.24935220877729622   0.29
0.24935220877729622   0.2904
0.24935220877729622   0.2908
0.24935220877729622   0.2912
0.24935220877729622   0.2916
0.24935220877729622   0.292
0.24935220877729622   0.2924
0.24935220877729622   0.2928
0.24935220877729622   0.2932
0.24935220877729622   0.2936
0.24935220877729622   0.294
0.24935220877729622   0.2944
0.24935220877729622   0.2948
0.24935220877729622   0.2952
0.24935220877729622   0.2956
0.24935220877729622   0.296
0.24935220877729622   0.2964
0.2588901725686173   0.2968
0.2588901725686173   0.2972
0.2588901725686173   0.2976
0.2588901725686173   0.298
0.2588901725686173   0.2984
0.2588901725686173   0.2988
0.2588901725686173   0.2992
0.2588901725686173   0.2996
0.2588901725686173   0.3
0.2588901725686173   0.3004
0.2588901725686173   0.3008
0.2588901725686173   0.3012
0.2588901725686173   0.3016
0.2588901725686173   0.302
0.2588901725686173   0.3024
0.2588901725686173   0.3028
0.2682624534699609   0.3032
0.2682624534699609   0.3036
0.2682624534699609   0.304
0.2682624534699609   0.3044
0.2682624534699609   0.3048
0.2682624534699609   0.3052
0.2682624534699609   0.3056
0.2682624534699609   0.306
0.2682624534699609   0.3064
0.2682624534699609   0.3068
0.2682624534699609   0.3072
0.2682624534699609   0.3076
0.2682624534699609   0.308
0.2682624534699609   0.3084
0.2682624534699609   0.3088
0.2682624534699609   0.3092
0.2682624534699609   0.3096
0.2682624534699609   0.31
0.2682624534699609   0.3104
0.2774675520862672   0.3108
0.2774675520862672   0.3112
0.2774675520862672   0.3116
0.2774675520862672   0.312
0.2774675520862672   0.3124
0.2774675520862672   0.3128
0.2774675520862672   0.3132
0.2774675520862672   0.3136
0.2774675520862672   0.314
0.2774675520862672   0.3144
0.2774675520862672   0.3148
0.2774675520862672   0.3152
0.2774675520862672   0.3156
0.2774675520862672   0.316
0.2774675520862672   0.3164
0.2774675520862672   0.3168
0.2774675520862672   0.3172
0.2774675520862672   0.3176
0.2774675520862672   0.318
0.2774675520862672   0.3184
0.2774675520862672   0.3188
0.2774675520862672   0.3192
0.2865047968601901   0.3196
0.2865047968601901   0.32
0.2865047968601901   0.3204
0.2865047968601901   0.3208
0.2865047968601901   0.3212
0.2865047968601901   0.3216
0.2865047968601901   0.322
0.2865047968601901   0.3224
0.2865047968601901   0.3228
0.2865047968601901   0.3232
0.2865047968601901   0.3236
0.2865047968601901   0.324
0.2865047968601901   0.3244
0.2865047968601901   0.3248
0.2865047968601901   0.3252
0.2865047968601901   0.3256
0.2865047968601901   0.326
0.29537421677083947   0.3264
0.29537421677083947   0.3268
0.29537421677083947   0.3272
0.29537421677083947   0.3276
0.29537421677083947   0.328
0.29537421677083947   0.3284
0.29537421677083947   0.3288
0.29537421677083947   0.3292
0.29537421677083947   0.3296
0.29537421677083947   0.33
0.29537421677083947   0.3304
0.29537421677083947   0.3308
0.29537421677083947   0.3312
0.29537421677083947   0.3316
0.29537421677083947   0.332
0.29537421677083947   0.3324
0.29537421677083947   0.3328
0.29537421677083947   0.3332
0.29537421677083947   0.3336
0.29537421677083947   0.334
0.29537421677083947   0.3344
0.29537421677083947   0.3348
0.29537421677083947   0.3352
0.29537421677083947   0.3356
0.29537421677083947   0.336
0.29537421677083947   0.3364
0.29537421677083947   0.3368
0.29537421677083947   0.3372
0.29537421677083947   0.3376
0.29537421677083947   0.338
0.30407643128483336   0.3384
0.30407643128483336   0.3388
0.30407643128483336   0.3392
0.30407643128483336   0.3396
0.30407643128483336   0.34
0.30407643128483336   0.3404
0.30407643128483336   0.3408
0.30407643128483336   0.3412
0.30407643128483336   0.3416
0.30407643128483336   0.342
0.30407643128483336   0.3424
0.30407643128483336   0.3428
0.30407643128483336   0.3432
0.30407643128483336   0.3436
0.30407643128483336   0.344
0.30407643128483336   0.3444
0.30407643128483336   0.3448
0.3126125553060687   0.3452
0.3126125553060687   0.3456
0.3126125553060687   0.346
0.3126125553060687   0.3464
0.3126125553060687   0.3468
0.3126125553060687   0.3472
0.3126125553060687   0.3476
0.3126125553060687   0.348
0.3126125553060687   0.3484
0.3126125553060687   0.3488
0.3126125553060687   0.3492
0.3126125553060687   0.3496
0.3126125553060687   0.35
0.3126125553060687   0.3504
0.3126125553060687   0.3508
0.3126125553060687   0.3512
0.3126125553060687   0.3516
0.3126125553060687   0.352
0.3126125553060687   0.3524
0.3126125553060687   0.3528
0.3126125553060687   0.3532
0.32098411714875263   0.3536
0.32098411714875263   0.354
0.32098411714875263   0.3544
0.32098411714875263   0.3548
0.32098411714875263   0.3552
0.32098411714875263   0.3556
0.32098411714875263   0.356
0.32098411714875263   0.3564
0.32098411714875263   0.3568
0.32098411714875263   0.3572
0.32098411714875263   0.3576
0.32098411714875263   0.358
0.32098411714875263   0.3584
0.32098411714875263   0.3588
0.32098411714875263   0.3592
0.32098411714875263   0.3596
0.32098411714875263   0.36
0.32098411714875263   0.3604
0.32098411714875263   0.3608
0.32098411714875263   0.3612
0.32098411714875263   0.3616
0.32919298780790557   0.362
0.32919298780790557   0.3624
0.32919298780790557   0.3628
0.32919298780790557   0.3632
0.32919298780790557   0.3636
0.32919298780790557   0.364
0.32919298780790557   0.3644
0.32919298780790557   0.3648
0.32919298780790557   0.3652
0.32919298780790557   0.3656
0.32919298780790557   0.366
0.32919298780790557   0.3664
0.32919298780790557   0.3668
0.32919298780790557   0.3672
0.32919298780790557   0.3676
0.32919298780790557   0.368
0.33724132002352386   0.3684
0.33724132002352386   0.3688
0.33724132002352386   0.3692
0.33724132002352386   0.3696
0.33724132002352386   0.37
0.33724132002352386   0.3704
0.33724132002352386   0.3708
0.33724132002352386   0.3712
0.33724132002352386   0.3716
0.33724132002352386   0.372
0.33724132002352386   0.3724
0.33724132002352386   0.3728
0.33724132002352386   0.3732
0.33724132002352386   0.3736
0.33724132002352386   0.374
0.33724132002352386   0.3744
0.33724132002352386   0.3748
0.33724132002352386   0.3752
0.33724132002352386   0.3756
0.33724132002352386   0.376
0.34513149583055036   0.3764
0.34513149583055036   0.3768
0.34513149583055036   0.3772
0.34513149583055036   0.3776
0.34513149583055036   0.378
0.34513149583055036   0.3784
0.34513149583055036   0.3788
0.34513149583055036   0.3792
0.34513149583055036   0.3796
0.34513149583055036   0.38
0.34513149583055036   0.3804
0.34513149583055036   0.3808
0.34513149583055036   0.3812
0.34513149583055036   0.3816
0.34513149583055036   0.382
0.34513149583055036   0.3824
0.34513149583055036   0.3828
0.34513149583055036   0.3832
0.34513149583055036   0.3836
0.34513149583055036   0.384
0.34513149583055036   0.3844
0.34513149583055036   0.3848
0.34513149583055036   0.3852
0.3528660814588489   0.3856
0.3528660814588489   0.386
0.3528660814588489   0.3864
0.3528660814588489   0.3868
0.3528660814588489   0.3872
0.3528660814588489   0.3876
0.3528660814588489   0.388
0.3528660814588489   0.3884
0.3528660814588489   0.3888
0.3528660814588489   0.3892
0.3528660814588489   0.3896
0.3528660814588489   0.39
0.3528660814588489   0.3904
0.360447788597821   0.3908
0.360447788597821   0.3912
0.360447788597821   0.3916
0.360447788597821   0.392
0.360447788597821   0.3924
0.360447788597821   0.3928
0.360447788597821   0.3932
0.360447788597821   0.3936
0.360447788597821   0.394
0.360447788597821   0.3944
0.360447788597821   0.3948
0.360447788597821   0.3952
0.360447788597821   0.3956
0.360447788597821   0.396
0.360447788597821   0.3964
0.360447788597821   0.3968
0.360447788597821   0.3972
0.360447788597821   0.3976
0.360447788597821   0.398
0.360447788597821   0.3984
0.360447788597821   0.3988
0.36787944117144233   0.3992
0.36787944117144233   0.3996
0.36787944117144233   0.4
0.36787944117144233   0.4004
0.36787944117144233   0.4008
0.36787944117144233   0.4012
0.36787944117144233   0.4016
0.36787944117144233   0.402
0.36787944117144233   0.4024
0.36787944117144233   0.4028
0.36787944117144233   0.4032
0.36787944117144233   0.4036
0.36787944117144233   0.404
0.36787944117144233   0.4044
0.36787944117144233   0.4048
0.36787944117144233   0.4052
0.36787944117144233   0.4056
0.36787944117144233   0.406
0.36787944117144233   0.4064
0.36787944117144233   0.4068
0.36787944117144233   0.4072
0.36787944117144233   0.4076
0.36787944117144233   0.408
0.36787944117144233   0.4084
0.36787944117144233   0.4088
0.36787944117144233   0.4092
0.36787944117144233   0.4096
0.36787944117144233   0.41
0.37516394688353344   0.4104
0.37516394688353344   0.4108
0.37516394688353344   0.4112
0.37516394688353344   0.4116
0.37516394688353344   0.412
0.37516394688353344   0.4124
0.37516394688353344   0.4128
0.37516394688353344   0.4132
0.37516394688353344   0.4136
0.37516394688353344   0.414
0.37516394688353344   0.4144
0.37516394688353344   0.4148
0.37516394688353344   0.4152
0.37516394688353344   0.4156
0.37516394688353344   0.416
0.38230427289208063   0.4164
0.38230427289208063   0.4168
0.38230427289208063   0.4172
0.38230427289208063   0.4176
0.38230427289208063   0.418
0.38230427289208063   0.4184
0.38230427289208063   0.4188
0.38230427289208063   0.4192
0.38230427289208063   0.4196
0.38230427289208063   0.42
0.38230427289208063   0.4204
0.38230427289208063   0.4208
0.38230427289208063   0.4212
0.38230427289208063   0.4216
0.389303425057248   0.422
0.389303425057248   0.4224
0.389303425057248   0.4228
0.389303425057248   0.4232
0.389303425057248   0.4236
0.389303425057248   0.424
0.389303425057248   0.4244
0.389303425057248   0.4248
0.389303425057248   0.4252
0.389303425057248   0.4256
0.389303425057248   0.426
0.389303425057248   0.4264
0.39616443028206555   0.4268
0.39616443028206555   0.4272
0.39616443028206555   0.4276
0.39616443028206555   0.428
0.39616443028206555   0.4284
0.39616443028206555   0.4288
0.39616443028206555   0.4292
0.39616443028206555   0.4296
0.39616443028206555   0.43
0.39616443028206555   0.4304
0.39616443028206555   0.4308
0.39616443028206555   0.4312
0.39616443028206555   0.4316
0.39616443028206555   0.432
0.39616443028206555   0.4324
0.39616443028206555   0.4328
0.39616443028206555   0.4332
0.39616443028206555   0.4336
0.39616443028206555   0.434
0.39616443028206555   0.4344
0.402890321529133   0.4348
0.402890321529133   0.4352
0.402890321529133   0.4356
0.402890321529133   0.436
0.402890321529133   0.4364
0.402890321529133   0.4368
0.402890321529133   0.4372
0.402890321529133   0.4376
0.402890321529133   0.438
0.402890321529133   0.4384
0.402890321529133   0.4388
0.402890321529133   0.4392
0.402890321529133   0.4396
0.402890321529133   0.44
0.402890321529133   0.4404
0.402890321529133   0.4408
0.402890321529133   0.4412
0.402890321529133   0.4416
0.402890321529133   0.442
0.402890321529133   0.4424
0.402890321529133   0.4428
0.4094841251523642   0.4432
0.4094841251523642   0.4436
0.4094841251523642   0.444
0.4094841251523642   0.4444
0.4094841251523642   0.4448
0.4094841251523642   0.4452
0.4094841251523642   0.4456
0.4094841251523642   0.446
0.4094841251523642   0.4464
0.4094841251523642   0.4468
0.4094841251523642   0.4472
0.4094841251523642   0.4476
0.4094841251523642   0.448
0.4094841251523642   0.4484
0.4159488502309769   0.4488
0.4159488502309769   0.4492
0.4159488502309769   0.4496
0.4159488502309769   0.45
0.4159488502309769   0.4504
0.4159488502309769   0.4508
0.4159488502309769   0.4512
0.4159488502309769   0.4516
0.4159488502309769   0.452
0.4159488502309769   0.4524
0.4159488502309769   0.4528
0.4159488502309769   0.4532
0.4159488502309769   0.4536
0.4159488502309769   0.454
0.4159488502309769   0.4544
0.4159488502309769   0.4548
0.4222874796346124   0.4552
0.4222874796346124   0.4556
0.4222874796346124   0.456
0.4222874796346124   0.4564
0.4222874796346124   0.4568
0.4222874796346124   0.4572
0.4222874796346124   0.4576
0.4222874796346124   0.458
0.4222874796346124   0.4584
0.4222874796346124   0.4588
0.4285029625845361   0.4592
0.4285029625845361   0.4596
0.4285029625845361   0.46
0.4285029625845361   0.4604
0.4285029625845361   0.4608
0.4285029625845361   0.4612
0.4285029625845361   0.4616
0.4285029625845361   0.462
0.4285029625845361   0.4624
0.4285029625845361   0.4628
0.4285029625845361   0.4632
0.4285029625845361   0.4636
0.4285029625845361   0.464
0.4285029625845361   0.4644
0.4345982085070782   0.4648
0.4345982085070782   0.4652
0.4345982085070782   0.4656
0.4345982085070782   0.466
0.4345982085070782   0.4664
0.4345982085070782   0.4668
0.4345982085070782   0.4672
0.4345982085070782   0.4676
0.4345982085070782   0.468
0.4345982085070782   0.4684
0.4345982085070782   0.4688
0.4345982085070782   0.4692
0.4345982085070782   0.4696
0.4345982085070782   0.47
0.4345982085070782   0.4704
0.4405760820024937   0.4708
0.4405760820024937   0.4712
0.4405760820024937   0.4716
0.4405760820024937   0.472
0.4405760820024937   0.4724
0.4405760820024937   0.4728
0.4405760820024937   0.4732
0.4405760820024937   0.4736
0.4464393987758162   0.474
0.4464393987758162   0.4744
0.4464393987758162   0.4748
0.4464393987758162   0.4752
0.4464393987758162   0.4756
0.4464393987758162   0.476
0.4464393987758162   0.4764
0.4464393987758162   0.4768
0.4464393987758162   0.4772
0.4464393987758162   0.4776
0.4464393987758162   0.478
0.4464393987758162   0.4784
0.4464393987758162   0.4788
0.4464393987758162   0.4792
0.4521909223965503   0.4796
0.4521909223965503   0.48
0.4521909223965503   0.4804
0.4521909223965503   0.4808
0.4521909223965503   0.4812
0.4521909223965503   0.4816
0.4521909223965503   0.482
0.4521909223965503   0.4824
0.4521909223965503   0.4828
0.4521909223965503   0.4832
0.4521909223965503   0.4836
0.4521909223965503   0.484
0.4521909223965503   0.4844
0.4521909223965503   0.4848
0.4521909223965503   0.4852
0.4521909223965503   0.4856
0.4521909223965503   0.486
0.45783336177161427   0.4864
0.45783336177161427   0.4868
0.45783336177161427   0.4872
0.45783336177161427   0.4876
0.45783336177161427   0.488
0.45783336177161427   0.4884
0.45783336177161427   0.4888
0.45783336177161427   0.4892
0.45783336177161427   0.4896
0.4633693692311753   0.49
0.4633693692311753   0.4904
0.4633693692311753   0.4908
0.4633693692311753   0.4912
0.4633693692311753   0.4916
0.4633693692311753   0.492
0.4633693692311753   0.4924
0.4633693692311753   0.4928
0.4633693692311753   0.4932
0.4633693692311753   0.4936
0.4688015391402353   0.494
0.4688015391402353   0.4944
0.4688015391402353   0.4948
0.4688015391402353   0.4952
0.4688015391402353   0.4956
0.4688015391402353   0.496
0.4688015391402353   0.4964
0.4688015391402353   0.4968
0.4688015391402353   0.4972
0.4688015391402353   0.4976
0.4688015391402353   0.498
0.4688015391402353   0.4984
0.4688015391402353   0.4988
0.4688015391402353   0.4992
0.4688015391402353   0.4996
0.47413240696029363   0.5
0.47413240696029363   0.5004
0.47413240696029363   0.5008
0.47413240696029363   0.5012
0.47413240696029363   0.5016
0.47413240696029363   0.502
0.47413240696029363   0.5024
0.47413240696029363   0.5028
0.47413240696029363   0.5032
0.47413240696029363   0.5036
0.47413240696029363   0.504
0.47413240696029363   0.5044
0.47413240696029363   0.5048
0.47413240696029363   0.5052
0.47413240696029363   0.5056
0.4793644486953708   0.506
0.4793644486953708   0.5064
0.4793644486953708   0.5068
0.4793644486953708   0.5072
0.4793644486953708   0.5076
0.4793644486953708   0.508
0.4793644486953708   0.5084
0.48450008066533023   0.5088
0.48450008066533023   0.5092
0.48450008066533023   0.5096
0.48450008066533023   0.51
0.48450008066533023   0.5104
0.48450008066533023   0.5108
0.48450008066533023   0.5112
0.48450008066533023   0.5116
0.48450008066533023   0.512
0.48450008066533023   0.5124
0.48450008066533023   0.5128
0.48450008066533023   0.5132
0.4895416595569531   0.5136
0.4895416595569531   0.514
0.4895416595569531   0.5144
0.4895416595569531   0.5148
0.4895416595569531   0.5152
0.4895416595569531   0.5156
0.4895416595569531   0.516
0.4895416595569531   0.5164
0.4895416595569531   0.5168
0.4895416595569531   0.5172
0.4895416595569531   0.5176
0.4895416595569531   0.518
0.4895416595569531   0.5184
0.4895416595569531   0.5188
0.4895416595569531   0.5192
0.49449148270976223   0.5196
0.49449148270976223   0.52
0.49449148270976223   0.5204
0.49449148270976223   0.5208
0.49449148270976223   0.5212
0.49449148270976223   0.5216
0.49449148270976223   0.522
0.49449148270976223   0.5224
0.49449148270976223   0.5228
0.49449148270976223   0.5232
0.49449148270976223   0.5236
0.4993517885992762   0.524
0.4993517885992762   0.5244
0.4993517885992762   0.5248
0.4993517885992762   0.5252
0.4993517885992762   0.5256
0.4993517885992762   0.526
0.4993517885992762   0.5264
0.5041247574853278   0.5268
0.5041247574853278   0.5272
0.5041247574853278   0.5276
0.5041247574853278   0.528
0.5041247574853278   0.5284
0.5041247574853278   0.5288
0.5041247574853278   0.5292
0.5041247574853278   0.5296
0.5041247574853278   0.53
0.5041247574853278   0.5304
0.5041247574853278   0.5308
0.5041247574853278   0.5312
0.5088125121973882   0.5316
0.5088125121973882   0.532
0.5088125121973882   0.5324
0.5088125121973882   0.5328
0.5088125121973882   0.5332
0.5088125121973882   0.5336
0.5088125121973882   0.534
0.5088125121973882   0.5344
0.513417119032592   0.5348
0.513417119032592   0.5352
0.513417119032592   0.5356
0.513417119032592   0.536
0.513417119032592   0.5364
0.513417119032592   0.5368
0.513417119032592   0.5372
0.513417119032592   0.5376
0.513417119032592   0.538
0.5179405887454284   0.5384
0.5179405887454284   0.5388
0.5179405887454284   0.5392
0.5179405887454284   0.5396
0.5179405887454284   0.54
0.5179405887454284   0.5404
0.5179405887454284   0.5408
0.5179405887454284   0.5412
0.5179405887454284   0.5416
0.5179405887454284   0.542
0.5179405887454284   0.5424
0.5179405887454284   0.5428
0.5179405887454284   0.5432
0.5223848776109098   0.5436
0.5223848776109098   0.544
0.5223848776109098   0.5444
0.5223848776109098   0.5448
0.5223848776109098   0.5452
0.5223848776109098   0.5456
0.5223848776109098   0.546
0.5223848776109098   0.5464
0.5223848776109098   0.5468
0.5223848776109098   0.5472
0.5267518885455156   0.5476
0.5267518885455156   0.548
0.5267518885455156   0.5484
0.5267518885455156   0.5488
0.5267518885455156   0.5492
0.5267518885455156   0.5496
0.5267518885455156   0.55
0.5267518885455156   0.5504
0.5267518885455156   0.5508
0.5310434722723684   0.5512
0.5310434722723684   0.5516
0.5310434722723684   0.552
0.5310434722723684   0.5524
0.5310434722723684   0.5528
0.5310434722723684   0.5532
0.5310434722723684   0.5536
0.5310434722723684   0.554
0.5310434722723684   0.5544
0.5310434722723684   0.5548
0.5310434722723684   0.5552
0.5352614285189903   0.5556
0.5352614285189903   0.556
0.5352614285189903   0.5564
0.5352614285189903   0.5568
0.5352614285189903   0.5572
0.5352614285189903   0.5576
0.5352614285189903   0.558
0.5352614285189903   0.5584
0.5352614285189903   0.5588
0.5394075072376266   0.5592
0.5394075072376266   0.5596
0.5394075072376266   0.56
0.5394075072376266   0.5604
0.5394075072376266   0.5608
0.5394075072376266   0.5612
0.5394075072376266   0.5616
0.5394075072376266   0.562
0.5394075072376266   0.5624
0.5394075072376266   0.5628
0.5394075072376266   0.5632
0.5394075072376266   0.5636
0.5394075072376266   0.564
0.543483409839564   0.5644
0.543483409839564   0.5648
0.543483409839564   0.5652
0.543483409839564   0.5656
0.543483409839564   0.566
0.543483409839564   0.5664
0.543483409839564   0.5668
0.543483409839564   0.5672
0.5474907904361106   0.5676
0.5474907904361106   0.568
0.5474907904361106   0.5684
0.5474907904361106   0.5688
0.5474907904361106   0.5692
0.5474907904361106   0.5696
0.5474907904361106   0.57
0.5474907904361106   0.5704
0.5474907904361106   0.5708
0.5474907904361106   0.5712
0.5474907904361106   0.5716
0.5474907904361106   0.572
0.5474907904361106   0.5724
0.5474907904361106   0.5728
0.551431257080004   0.5732
0.551431257080004   0.5736
0.551431257080004   0.574
0.551431257080004   0.5744
0.551431257080004   0.5748
0.551431257080004   0.5752
0.551431257080004   0.5756
0.551431257080004   0.576
0.551431257080004   0.5764
0.551431257080004   0.5768
0.5553063730019505   0.5772
0.5553063730019505   0.5776
0.5553063730019505   0.578
0.5553063730019505   0.5784
0.5553063730019505   0.5788
0.5553063730019505   0.5792
0.5553063730019505   0.5796
0.5591176578378371   0.58
0.5591176578378371   0.5804
0.5591176578378371   0.5808
0.5591176578378371   0.5812
0.5591176578378371   0.5816
0.5591176578378371   0.582
0.5591176578378371   0.5824
0.5591176578378371   0.5828
0.5591176578378371   0.5832
0.5591176578378371   0.5836
0.5628665888428616   0.584
0.5628665888428616   0.5844
0.5628665888428616   0.5848
0.5628665888428616   0.5852
0.5628665888428616   0.5856
0.5628665888428616   0.586
0.5628665888428616   0.5864
0.5628665888428616   0.5868
0.5628665888428616   0.5872
0.5665546020894655   0.5876
0.5665546020894655   0.588
0.5665546020894655   0.5884
0.5665546020894655   0.5888
0.5701830936464881   0.5892
0.5701830936464881   0.5896
0.5701830936464881   0.59
0.5701830936464881   0.5904
0.5701830936464881   0.5908
0.5701830936464881   0.5912
0.5701830936464881   0.5916
0.5701830936464881   0.592
0.5701830936464881   0.5924
0.5737534207374327   0.5928
0.5737534207374327   0.5932
0.5737534207374327   0.5936
0.5737534207374327   0.594
0.5772669028761512   0.5944
0.5772669028761512   0.5948
0.5772669028761512   0.5952
0.5772669028761512   0.5956
0.5772669028761512   0.596
0.5772669028761512   0.5964
0.5772669028761512   0.5968
0.5772669028761512   0.5972
0.5772669028761512   0.5976
0.5807248229785978   0.598
0.5807248229785978   0.5984
0.5807248229785978   0.5988
0.5807248229785978   0.5992
0.5807248229785978   0.5996
0.5807248229785978   0.6
0.5841284284496188   0.6004
0.5841284284496188   0.6008
0.5841284284496188   0.6012
0.5841284284496188   0.6016
0.5841284284496188   0.602
0.5841284284496188   0.6024
0.5841284284496188   0.6028
0.5841284284496188   0.6032
0.587478932244   0.6036
0.587478932244   0.604
0.587478932244   0.6044
0.587478932244   0.6048
0.587478932244   0.6052
0.587478932244   0.6056
0.587478932244   0.606
0.587478932244   0.6064
0.587478932244   0.6068
0.587478932244   0.6072
0.587478932244   0.6076
0.587478932244   0.608
0.5907775139012317   0.6084
0.5907775139012317   0.6088
0.5907775139012317   0.6092
0.5907775139012317   0.6096
0.5907775139012317   0.61
0.5907775139012317   0.6104
0.594025320553635   0.6108
0.594025320553635   0.6112
0.594025320553635   0.6116
0.594025320553635   0.612
0.594025320553635   0.6124
0.594025320553635   0.6128
0.594025320553635   0.6132
0.594025320553635   0.6136
0.594025320553635   0.614
0.594025320553635   0.6144
0.594025320553635   0.6148
0.594025320553635   0.6152
0.594025320553635   0.6156
0.594025320553635   0.616
0.594025320553635   0.6164
0.5972234679076734   0.6168
0.5972234679076734   0.6172
0.5972234679076734   0.6176
0.5972234679076734   0.618
0.5972234679076734   0.6184
0.5972234679076734   0.6188
0.5972234679076734   0.6192
0.6003730411984044   0.6196
0.6003730411984044   0.62
0.6003730411984044   0.6204
0.6003730411984044   0.6208
0.6003730411984044   0.6212
0.6003730411984044   0.6216
0.6003730411984044   0.622
0.6003730411984044   0.6224
0.6034750961171595   0.6228
0.6034750961171595   0.6232
0.6034750961171595   0.6236
0.6034750961171595   0.624
0.6034750961171595   0.6244
0.6034750961171595   0.6248
0.6034750961171595   0.6252
0.6034750961171595   0.6256
0.6034750961171595   0.626
0.6034750961171595   0.6264
0.6034750961171595   0.6268
0.6034750961171595   0.6272
0.6034750961171595   0.6276
0.6065306597126334   0.628
0.6065306597126334   0.6284
0.6065306597126334   0.6288
0.6065306597126334   0.6292
0.609540731265658   0.6296
0.609540731265658   0.63
0.609540731265658   0.6304
0.609540731265658   0.6308
0.609540731265658   0.6312
0.609540731265658   0.6316
0.6125062831380046   0.632
0.6125062831380046   0.6324
0.6125062831380046   0.6328
0.6125062831380046   0.6332
0.6154282615956201   0.6336
0.6154282615956201   0.634
0.6154282615956201   0.6344
0.6154282615956201   0.6348
0.6154282615956201   0.6352
0.6154282615956201   0.6356
0.6154282615956201   0.636
0.6154282615956201   0.6364
0.6183075876067515   0.6368
0.6183075876067515   0.6372
0.6183075876067515   0.6376
0.6183075876067515   0.638
0.6183075876067515   0.6384
0.6211451576154515   0.6388
0.6211451576154515   0.6392
0.6211451576154515   0.6396
0.6211451576154515   0.64
0.6239418442909949   0.6404
0.6239418442909949   0.6408
0.6239418442909949   0.6412
0.6239418442909949   0.6416
0.6239418442909949   0.642
0.6239418442909949   0.6424
0.6239418442909949   0.6428
0.6239418442909949   0.6432
0.6239418442909949   0.6436
0.6266984972537517   0.644
0.6266984972537517   0.6444
0.6266984972537517   0.6448
0.6266984972537517   0.6452
0.6266984972537517   0.6456
0.6266984972537517   0.646
0.6294159437780914   0.6464
0.6294159437780914   0.6468
0.6294159437780914   0.6472
0.6294159437780914   0.6476
0.6294159437780914   0.648
0.6294159437780914   0.6484
0.6294159437780914   0.6488
0.6320949894728969   0.6492
0.6320949894728969   0.6496
0.6320949894728969   0.65
0.6320949894728969   0.6504
0.6320949894728969   0.6508
0.6347364189402819   0.6512
0.6347364189402819   0.6516
0.6347364189402819   0.652
0.6347364189402819   0.6524
0.6347364189402819   0.6528
0.6373409964131074   0.6532
0.6373409964131074   0.6536
0.6373409964131074   0.654
0.6373409964131074   0.6544
0.6373409964131074   0.6548
0.6373409964131074   0.6552
0.6399094663718956   0.6556
0.6399094663718956   0.656
0.6399094663718956   0.6564
0.6399094663718956   0.6568
0.6399094663718956   0.6572
0.6399094663718956   0.6576
0.6399094663718956   0.658
0.6424425541417368   0.6584
0.6424425541417368   0.6588
0.6424425541417368   0.6592
0.6424425541417368   0.6596
0.6449409664697824   0.66
0.6449409664697824   0.6604
0.6449409664697824   0.6608
0.6449409664697824   0.6612
0.647405392083911   0.6616
0.647405392083911   0.662
0.647405392083911   0.6624
0.647405392083911   0.6628
0.647405392083911   0.6632
0.6498365022331481   0.6636
0.6498365022331481   0.664
0.6498365022331481   0.6644
0.6498365022331481   0.6648
0.6498365022331481   0.6652
0.6498365022331481   0.6656
0.6498365022331481   0.666
0.6498365022331481   0.6664
0.6522349512104066   0.6668
0.6522349512104066   0.6672
0.6522349512104066   0.6676
0.6522349512104066   0.668
0.654601376858112   0.6684
0.654601376858112   0.6688
0.654601376858112   0.6692
0.654601376858112   0.6696
0.6569364010572601   0.67
0.6569364010572601   0.6704
0.6569364010572601   0.6708
0.6569364010572601   0.6712
0.6569364010572601   0.6716
0.6569364010572601   0.672
0.6569364010572601   0.6724
0.6569364010572601   0.6728
0.6569364010572601   0.6732
0.6569364010572601   0.6736
0.6569364010572601   0.674
0.6592406302004438   0.6744
0.6592406302004438   0.6748
0.6592406302004438   0.6752
0.6592406302004438   0.6756
0.6592406302004438   0.676
0.6615146556493746   0.6764
0.6615146556493746   0.6768
0.6615146556493746   0.6772
0.6615146556493746   0.6776
0.6637590541774129   0.678
0.6637590541774129   0.6784
0.6637590541774129   0.6788
0.6637590541774129   0.6792
0.6637590541774129   0.6796
0.6637590541774129   0.68
0.6637590541774129   0.6804
0.6637590541774129   0.6808
0.6637590541774129   0.6812
0.6659743883976017   0.6816
0.6659743883976017   0.682
0.6681612071766934   0.6824
0.6681612071766934   0.6828
0.6681612071766934   0.6832
0.6681612071766934   0.6836
0.6681612071766934   0.684
0.6681612071766934   0.6844
0.6703200460356393   0.6848
0.6703200460356393   0.6852
0.6703200460356393   0.6856
0.6703200460356393   0.686
0.6703200460356393   0.6864
0.6703200460356393   0.6868
0.6724514275370008   0.6872
0.6724514275370008   0.6876
0.6724514275370008   0.688
0.6724514275370008   0.6884
0.6724514275370008   0.6888
0.6724514275370008   0.6892
0.6724514275370008   0.6896
0.6745558616597268   0.69
0.6745558616597268   0.6904
0.6745558616597268   0.6908
0.6745558616597268   0.6912
0.6745558616597268   0.6916
0.6745558616597268   0.692
0.676633846161729   0.6924
0.6786858669306721   0.6928
0.6786858669306721   0.6932
0.6786858669306721   0.6936
0.6807123983233854   0.694
0.6807123983233854   0.6944
0.6807123983233854   0.6948
0.6807123983233854   0.6952
0.6807123983233854   0.6956
0.6807123983233854   0.696
0.6827139034942841   0.6964
0.6827139034942841   0.6968
0.684690834713183   0.6972
0.684690834713183   0.6976
0.684690834713183   0.698
0.684690834713183   0.6984
0.684690834713183   0.6988
0.684690834713183   0.6992
0.684690834713183   0.6996
0.684690834713183   0.7
0.684690834713183   0.7004
0.684690834713183   0.7008
0.6866436336728665   0.7012
0.6866436336728665   0.7016
0.6866436336728665   0.702
0.6866436336728665   0.7024
0.6866436336728665   0.7028
0.6866436336728665   0.7032
0.6885727317867689   0.7036
0.6885727317867689   0.704
0.6885727317867689   0.7044
0.6904785504771092   0.7048
0.6904785504771092   0.7052
0.6904785504771092   0.7056
0.6923615014538076   0.706
0.6923615014538076   0.7064
0.6923615014538076   0.7068
0.6923615014538076   0.7072
0.6923615014538076   0.7076
0.6923615014538076   0.708
0.6923615014538076   0.7084
0.6942219869845063   0.7088
0.6942219869845063   0.7092
0.6942219869845063   0.7096
0.6942219869845063   0.71
0.6942219869845063   0.7104
0.6942219869845063   0.7108
0.6960604001559996   0.7112
0.6960604001559996   0.7116
0.6960604001559996   0.712
0.6978771251273718   0.7124
0.6978771251273718   0.7128
0.6996725373751304   0.7132
0.6996725373751304   0.7136
0.6996725373751304   0.714
0.6996725373751304   0.7144
0.7014470039306097   0.7148
0.7014470039306097   0.7152
0.7014470039306097   0.7156
0.7014470039306097   0.716
0.7014470039306097   0.7164
0.7014470039306097   0.7168
0.7032008836099128   0.7172
0.7032008836099128   0.7176
0.7032008836099128   0.718
0.7032008836099128   0.7184
0.7049345272366495   0.7188
0.7049345272366495   0.7192
0.7066482778577162   0.7196
0.7066482778577162   0.72
0.7066482778577162   0.7204
0.7066482778577162   0.7208
0.7083424709523612   0.7212
0.7083424709523612   0.7216
0.7083424709523612   0.722
0.7083424709523612   0.7224
0.7083424709523612   0.7228
0.7100174346347615   0.7232
0.7116734898503364   0.7236
0.7116734898503364   0.724
0.7116734898503364   0.7244
0.7116734898503364   0.7248
0.7133109505660123   0.7252
0.7133109505660123   0.7256
0.7133109505660123   0.726
0.7133109505660123   0.7264
0.7133109505660123   0.7268
0.7133109505660123   0.7272
0.7133109505660123   0.7276
0.7133109505660123   0.728
0.7149301239546435   0.7284
0.7149301239546435   0.7288
0.7149301239546435   0.7292
0.7149301239546435   0.7296
0.7165313105737893   0.73
0.7165313105737893   0.7304
0.7165313105737893   0.7308
0.7165313105737893   0.7312
0.7165313105737893   0.7316
0.7165313105737893   0.732
0.7181148045390404   0.7324
0.7181148045390404   0.7328
0.7181148045390404   0.7332
0.7181148045390404   0.7336
0.7181148045390404   0.734
0.7196808936920782   0.7344
0.7196808936920782   0.7348
0.7196808936920782   0.7352
0.7196808936920782   0.7356
0.7196808936920782   0.736
0.7196808936920782   0.7364
0.7196808936920782   0.7368
0.7212298597636447   0.7372
0.7212298597636447   0.7376
0.7212298597636447   0.738
0.7212298597636447   0.7384
0.7227619785315977   0.7388
0.7227619785315977   0.7392
0.7227619785315977   0.7396
0.7227619785315977   0.74
0.7227619785315977   0.7404
0.7227619785315977   0.7408
0.7227619785315977   0.7412
0.7242775199742143   0.7416
0.7242775199742143   0.742
0.7242775199742143   0.7424
0.7242775199742143   0.7428
0.7257767484189029   0.7432
0.7257767484189029   0.7436
0.7257767484189029   0.744
0.7272599226864798   0.7444
0.7272599226864798   0.7448
0.7272599226864798   0.7452
0.7287272962311543   0.7456
0.7287272962311543   0.746
0.7287272962311543   0.7464
0.730179117276371   0.7468
0.7316156289466418   0.7472
0.7330370693955041   0.7476
0.7330370693955041   0.748
0.7330370693955041   0.7484
0.7330370693955041   0.7488
0.7344436719297313   0.7492
0.7358356651299203   0.7496
0.7358356651299203   0.75
0.7358356651299203   0.7504
0.7358356651299203   0.7508
0.7358356651299203   0.7512
0.7358356651299203   0.7516
0.7372132729675748   0.752
0.7372132729675748   0.7524
0.7372132729675748   0.7528
0.7372132729675748   0.7532
0.7372132729675748   0.7536
0.7372132729675748   0.754
0.7385767149187981   0.7544
0.7399262060747076   0.7548
0.7399262060747076   0.7552
0.7399262060747076   0.7556
0.7399262060747076   0.756
0.7412619572486776   0.7564
0.7412619572486776   0.7568
0.7412619572486776   0.7572
0.7412619572486776   0.7576
0.7425841750805116   0.758
0.7425841750805116   0.7584
0.7425841750805116   0.7588
0.7425841750805116   0.7592
0.7425841750805116   0.7596
0.7425841750805116   0.76
0.7438930621376464   0.7604
0.7438930621376464   0.7608
0.7438930621376464   0.7612
0.7451888170134805   0.7616
0.7451888170134805   0.762
0.7451888170134805   0.7624
0.7464716344229219   0.7628
0.7464716344229219   0.7632
0.7477417052952423   0.7636
0.7477417052952423   0.764
0.7489992168643264   0.7644
0.7489992168643264   0.7648
0.7489992168643264   0.7652
0.7489992168643264   0.7656
0.7502443527563947   0.766
0.7502443527563947   0.7664
0.7502443527563947   0.7668
0.7502443527563947   0.7672
0.7502443527563947   0.7676
0.751477293075286   0.768
0.751477293075286   0.7684
0.751477293075286   0.7688
0.751477293075286   0.7692
0.751477293075286   0.7696
0.752698214485371   0.77
0.752698214485371   0.7704
0.752698214485371   0.7708
0.752698214485371   0.7712
0.752698214485371   0.7716
0.7539072902921756   0.772
0.7539072902921756   0.7724
0.7539072902921756   0.7728
0.7539072902921756   0.7732
0.7562905819920889   0.7736
0.7562905819920889   0.774
0.7574651283969664   0.7744
0.7574651283969664   0.7748
0.7574651283969664   0.7752
0.7574651283969664   0.7756
0.7574651283969664   0.776
0.7574651283969664   0.7764
0.7586284903684212   0.7768
0.7586284903684212   0.7772
0.7586284903684212   0.7776
0.7586284903684212   0.778
0.7586284903684212   0.7784
0.7597808255517845   0.7788
0.7597808255517845   0.7792
0.7597808255517845   0.7796
0.7609222886730125   0.78
0.7609222886730125   0.7804
0.7620530316051488   0.7808
0.7620530316051488   0.7812
0.7631732034330049   0.7816
0.7631732034330049   0.782
0.7642829505161153   0.7824
0.7642829505161153   0.7828
0.7642829505161153   0.7832
0.7642829505161153   0.7836
0.7653824165500177   0.784
0.7653824165500177   0.7844
0.7664717426259106   0.7848
0.7664717426259106   0.7852
0.7664717426259106   0.7856
0.7675510672887358   0.786
0.7675510672887358   0.7864
0.7675510672887358   0.7868
0.7675510672887358   0.7872
0.7686205265937358   0.7876
0.7696802541615287   0.788
0.7696802541615287   0.7884
0.7696802541615287   0.7888
0.7696802541615287   0.7892
0.7707303812317476   0.7896
0.7707303812317476   0.79
0.7707303812317476   0.7904
0.7717710367152857   0.7908
0.7728023472451888   0.7912
0.7738244372262367   0.7916
0.7748374288832494   0.792
0.7748374288832494   0.7924
0.7768365955058757   0.7928
0.7768365955058757   0.7932
0.7768365955058757   0.7936
0.7778230044390035   0.794
0.7778230044390035   0.7944
0.7778230044390035   0.7948
0.7778230044390035   0.7952
0.7778230044390035   0.7956
0.7778230044390035   0.796
0.7788007830714049   0.7964
0.7788007830714049   0.7968
0.7788007830714049   0.7972
0.7788007830714049   0.7976
0.7797700434106819   0.798
0.7797700434106819   0.7984
0.7807308955495856   0.7988
0.7816834477063896   0.7992
0.7816834477063896   0.7996
0.7826278062642578   0.8
0.7826278062642578   0.8004
0.7826278062642578   0.8008
0.7835640758096347   0.8012
