
# Curve 0 of 1, 100 points
# Curve title: "xx(alpha),tau(alpha)"
# x y type
 0.00000  0.00000  i
 0.00018  0.00025  i
 0.00071  0.00101  i
 0.00160  0.00226  i
 0.00284  0.00402  i
 0.00444  0.00628  i
 0.00639  0.00904  i
 0.00869  0.01229  i
 0.01133  0.01603  i
 0.01432  0.02025  i
 0.01765  0.02496  i
 0.02132  0.03015  i
 0.02533  0.03582  i
 0.02966  0.04195  i
 0.03432  0.04854  i
 0.03930  0.05558  i
 0.04460  0.06308  i
 0.05021  0.07101  i
 0.05613  0.07937  i
 0.06234  0.08816  i
 0.06885  0.09736  i
 0.07564  0.10697  i
 0.08272  0.11698  i
 0.09006  0.12737  i
 0.09767  0.13813  i
 0.10554  0.14926  i
 0.11366  0.16075  i
 0.12203  0.17257  i
 0.13062  0.18472  i
 0.13944  0.19720  i
 0.14847  0.20997  i
 0.15771  0.22304  i
 0.16715  0.23639  i
 0.17678  0.25000  i
 0.18658  0.26386  i
 0.19655  0.27797  i
 0.20668  0.29229  i
 0.21696  0.30683  i
 0.22738  0.32156  i
 0.23792  0.33647  i
 0.24858  0.35154  i
 0.25934  0.36676  i
 0.27020  0.38212  i
 0.28114  0.39760  i
 0.29216  0.41318  i
 0.30324  0.42884  i
 0.31437  0.44458  i
 0.32553  0.46038  i
 0.33673  0.47621  i
 0.34794  0.49207  i
 0.35916  0.50793  i
 0.37038  0.52379  i
 0.38157  0.53962  i
 0.39274  0.55542  i
 0.40387  0.57116  i
 0.41495  0.58682  i
 0.42596  0.60240  i
 0.43691  0.61788  i
 0.44777  0.63324  i
 0.45853  0.64846  i
 0.46919  0.66353  i
 0.47973  0.67844  i
 0.49015  0.69317  i
 0.50042  0.70771  i
 0.51055  0.72203  i
 0.52053  0.73614  i
 0.53033  0.75000  i
 0.53996  0.76361  i
 0.54939  0.77696  i
 0.55863  0.79003  i
 0.56767  0.80280  i
 0.57649  0.81528  i
 0.58508  0.82743  i
 0.59344  0.83925  i
 0.60156  0.85074  i
 0.60943  0.86187  i
 0.61704  0.87263  i
 0.62439  0.88302  i
 0.63147  0.89303  i
 0.63826  0.90264  i
 0.64477  0.91184  i
 0.65098  0.92063  i
 0.65690  0.92899  i
 0.66251  0.93692  i
 0.66780  0.94442  i
 0.67279  0.95146  i
 0.67745  0.95805  i
 0.68178  0.96418  i
 0.68578  0.96985  i
 0.68945  0.97504  i
 0.69279  0.97975  i
 0.69577  0.98397  i
 0.69842  0.98771  i
 0.70072  0.99096  i
 0.70267  0.99372  i
 0.70426  0.99598  i
 0.70551  0.99774  i
 0.70639  0.99899  i
 0.70693  0.99975  i
 0.70711  1.00000  i

