0 0 i 
0.0151701 0.000945413 i 
0.0262619 0.00164161 i 
0.0337859 0.00215802 i 
0.0400213 0.00253782 i 
0.0453833 0.00287586 i 
0.0478392 0.00303078 i 
0.13496 0.00862572 i 
0.184255 0.0119088 i 
0.222521 0.0145283 i 
0.254761 0.0168058 i 
0.283041 0.0188678 i 
0.308454 0.0207807 i 
0.33162 0.0225986 i 
0.353052 0.0243203 i 
0.373018 0.0259774 i 
0.391745 0.0275833 i 
0.409402 0.0291483 i 
0.426123 0.0306805 i 
0.442016 0.0321862 i 
0.457166 0.0336709 i 
0.471647 0.035139 i 
0.485519 0.0365943 i 
0.498834 0.03804 i 
0.511635 0.0394791 i 
0.523961 0.040914 i 
0.535845 0.042347 i 
0.547317 0.0437802 i 
0.558402 0.0452155 i 
0.569125 0.0466546 i 
0.579506 0.0480991 i 
0.589564 0.0495506 i 
0.599315 0.0510104 i 
0.608775 0.0524799 i 
0.617959 0.0539605 i 
0.626878 0.0554533 i 
0.635546 0.0569596 i 
0.643938 0.0584976 i 
0.652134 0.0600347 i 
0.660107 0.0615889 i 
0.667867 0.0631611 i 
0.675423 0.0647525 i 
0.682781 0.0663641 i 
0.689949 0.0679972 i 
0.696934 0.0696526 i 
0.703742 0.0713316 i 
0.710378 0.0730352 i 
0.716849 0.0747645 i 
0.72316 0.0765207 i 
0.729315 0.0783047 i 
0.73532 0.0801178 i 
0.741179 0.0819611 i 
0.746896 0.0838357 i 
0.752476 0.0857427 i 
0.757923 0.0876834 i 
0.763239 0.089659 i 
0.76843 0.0916705 i 
0.773498 0.0937194 i 
0.778448 0.0958068 i 
0.783281 0.0979339 i 
0.788001 0.100102 i 
0.792612 0.102313 i 
0.797116 0.104567 i 
0.801515 0.106867 i 
0.805814 0.109212 i 
0.810014 0.111606 i 
0.814117 0.114049 i 
0.818128 0.116543 i 
0.822047 0.119089 i 
0.825877 0.121689 i 
0.829621 0.124344 i 
0.83328 0.127056 i 
0.836858 0.129827 i 
0.840355 0.132658 i 
0.843775 0.135551 i 
0.847119 0.138507 i 
0.850388 0.141529 i 
0.853586 0.144618 i 
0.856714 0.147775 i 
0.859774 0.151004 i 
0.862768 0.154305 i 
0.865697 0.157681 i 
0.868563 0.161134 i 
0.871368 0.164666 i 
0.874113 0.168278 i 
0.876801 0.171973 i 
0.879432 0.175754 i 
0.882009 0.179622 i 
0.884532 0.18358 i 
0.887004 0.18763 i 
0.889426 0.191774 i 
0.891799 0.196016 i 
0.894125 0.200358 i 
0.896404 0.204802 i 
0.89864 0.209351 i 
0.900832 0.214008 i 
0.902983 0.218777 i 
0.905093 0.223659 i 
0.907163 0.228659 i 
0.909196 0.233779 i 
0.911192 0.239024 i 
0.913153 0.244395 i 
0.915079 0.249899 i 
0.916972 0.255537 i 
0.918833 0.261315 i 
0.920663 0.267235 i 
0.922463 0.273304 i 
0.924235 0.279525 i 
0.92598 0.285904 i 
0.927698 0.292445 i 
0.929391 0.299154 i 
0.93106 0.306037 i 
0.932705 0.3131 i 
0.934329 0.320349 i 
0.935932 0.327791 i 
0.937515 0.335433 i 
0.939079 0.343284 i 
0.940626 0.351351 i 
0.942156 0.359644 i 
0.943688 0.368139 i 
0.945188 0.376913 i 
0.946675 0.385944 i 
0.948151 0.395245 i 
0.949616 0.404828 i 
0.951072 0.414708 i 
0.952521 0.424902 i 
0.953963 0.435427 i 
0.9554 0.446303 i 
0.956834 0.457551 i 
0.958267 0.469196 i 
0.959701 0.481266 i 
0.961137 0.493791 i 
0.962579 0.506807 i 
0.964028 0.520355 i 
0.965488 0.534481 i 
0.966963 0.549241 i 
0.968456 0.5647 i 
0.969973 0.580936 i 
0.971518 0.598044 i 
0.973099 0.616141 i 
0.974726 0.635375 i 
0.976409 0.655938 i 
0.978163 0.678085 i 
0.980024 0.702135 i 
0.981995 0.728677 i 
0.984139 0.758483 i 
0.986541 0.792958 i 
0.989381 0.835003 i 
0.993199 0.893186 i 
0.996969 0.952161 i 
0.997288 0.957213 i 
0.997637 0.962986 i 
0.998068 0.969785 i 
0.998657 0.978566 i 
1 1 i 
