0 0 i 
0.00804076 0.00485381 i 
0.0138963 0.00843267 i 
0.0179427 0.0108852 i 
0.0212033 0.0129023 i 
0.0240435 0.0146299 i 
0.0253446 0.0154214 i 
0.071754 0.04367 i 
0.0982962 0.0599114 i 
0.119053 0.0727293 i 
0.1367 0.0837027 i 
0.152321 0.0934845 i 
0.166488 0.102418 i 
0.179517 0.110734 i 
0.191692 0.118521 i 
0.203143 0.125897 i 
0.213988 0.132931 i 
0.224314 0.139675 i 
0.234191 0.146172 i 
0.243674 0.152452 i 
0.252807 0.158543 i 
0.261627 0.164466 i 
0.270165 0.170241 i 
0.278447 0.175881 i 
0.286496 0.181401 i 
0.294331 0.186812 i 
0.30197 0.192124 i 
0.309426 0.197346 i 
0.316713 0.202485 i 
0.323842 0.207548 i 
0.330825 0.212542 i 
0.33767 0.217471 i 
0.344387 0.222342 i 
0.350982 0.227158 i 
0.357462 0.231924 i 
0.363834 0.236643 i 
0.370105 0.24132 i 
0.376251 0.24598 i 
0.382333 0.25058 i 
0.388327 0.255145 i 
0.394238 0.25968 i 
0.40007 0.264184 i 
0.405827 0.268662 i 
0.411511 0.273115 i 
0.417128 0.277546 i 
0.422678 0.281955 i 
0.428166 0.286345 i 
0.433593 0.290717 i 
0.438963 0.295074 i 
0.444277 0.299415 i 
0.449539 0.303744 i 
0.45475 0.308062 i 
0.459912 0.312369 i 
0.465027 0.316666 i 
0.470097 0.320957 i 
0.475124 0.32524 i 
0.48011 0.329518 i 
0.485055 0.333792 i 
0.489962 0.338062 i 
0.494833 0.34233 i 
0.499668 0.346597 i 
0.504468 0.350864 i 
0.509236 0.355131 i 
0.513973 0.359401 i 
0.518679 0.363672 i 
0.523357 0.367948 i 
0.528006 0.372228 i 
0.532629 0.376514 i 
0.537227 0.380805 i 
0.541799 0.385104 i 
0.546349 0.389412 i 
0.550876 0.393728 i 
0.555381 0.398054 i 
0.559867 0.402391 i 
0.564332 0.406739 i 
0.568779 0.4111 i 
0.573209 0.415475 i 
0.577622 0.419863 i 
0.582019 0.424267 i 
0.586402 0.428687 i 
0.59077 0.433124 i 
0.595126 0.437579 i 
0.599469 0.442053 i 
0.603801 0.446547 i 
0.608123 0.451062 i 
0.612435 0.455598 i 
0.616739 0.460157 i 
0.621035 0.464741 i 
0.625324 0.469349 i 
0.629607 0.473983 i 
0.633885 0.478644 i 
0.638159 0.483334 i 
0.642429 0.488053 i 
0.646698 0.492803 i 
0.650965 0.497585 i 
0.655231 0.5024 i 
0.659499 0.50725 i 
0.663768 0.512136 i 
0.668039 0.517059 i 
0.672315 0.522022 i 
0.676595 0.527025 i 
0.680881 0.53207 i 
0.685174 0.537159 i 
0.689476 0.542295 i 
0.693787 0.547477 i 
0.698109 0.55271 i 
0.702444 0.557994 i 
0.706792 0.563332 i 
0.711155 0.568726 i 
0.715534 0.574179 i 
0.719932 0.579693 i 
0.72435 0.585271 i 
0.72879 0.590916 i 
0.733254 0.596631 i 
0.737743 0.60242 i 
0.74226 0.608285 i 
0.746807 0.614232 i 
0.751387 0.620263 i 
0.756003 0.626383 i 
0.760679 0.63257 i 
0.765374 0.638884 i 
0.770113 0.645302 i 
0.7749 0.65183 i 
0.779739 0.658476 i 
0.784634 0.665247 i 
0.78959 0.67215 i 
0.794613 0.679195 i 
0.799708 0.68639 i 
0.804882 0.693748 i 
0.810141 0.701281 i 
0.815494 0.709001 i 
0.82095 0.716926 i 
0.826521 0.725072 i 
0.832217 0.733461 i 
0.838053 0.742117 i 
0.844046 0.751067 i 
0.850215 0.760345 i 
0.856584 0.76999 i 
0.863183 0.780053 i 
0.870046 0.790592 i 
0.877219 0.801684 i 
0.884761 0.813429 i 
0.892752 0.825959 i 
0.901322 0.839431 i 
0.910588 0.854169 i 
0.920827 0.870569 i 
0.93248 0.889365 i 
0.946468 0.912085 i 
0.96551 0.943277 i 
0.984579 0.974655 i 
0.986207 0.977332 i 
0.988076 0.980344 i 
0.990264 0.983953 i 
0.993114 0.988655 i 
1 1 i 
