0 0 i 
0.00211936 0.0123021 i 
0.00368132 0.0212865 i 
0.0047484 0.0274891 i 
0.00559916 0.0325646 i 
0.00634758 0.0369272 i 
0.00669055 0.0389255 i 
0.0190255 0.109886 i 
0.0262091 0.150144 i 
0.0319135 0.181482 i 
0.0368428 0.207958 i 
0.0412782 0.231247 i 
0.045367 0.252234 i 
0.0491796 0.27149 i 
0.0528095 0.289299 i 
0.0562804 0.305942 i 
0.0596219 0.3216 i 
0.0628566 0.336411 i 
0.066002 0.350484 i 
0.0690721 0.363904 i 
0.0720783 0.376741 i 
0.0750301 0.389055 i 
0.0779353 0.400892 i 
0.0808008 0.412296 i 
0.0836323 0.423302 i 
0.0864349 0.433939 i 
0.0892131 0.444236 i 
0.0919708 0.454215 i 
0.0947115 0.463899 i 
0.0974383 0.473304 i 
0.100154 0.482449 i 
0.102862 0.491348 i 
0.105563 0.500014 i 
0.108261 0.50846 i 
0.110957 0.516698 i 
0.113653 0.524736 i 
0.116351 0.532586 i 
0.119072 0.540225 i 
0.12178 0.547722 i 
0.124494 0.555053 i 
0.127215 0.562227 i 
0.129947 0.569249 i 
0.132689 0.576125 i 
0.135443 0.582861 i 
0.138211 0.589463 i 
0.140993 0.595934 i 
0.14379 0.60228 i 
0.146605 0.608506 i 
0.149437 0.614614 i 
0.152288 0.62061 i 
0.155159 0.626496 i 
0.15805 0.632276 i 
0.160964 0.637955 i 
0.163901 0.643534 i 
0.166862 0.649016 i 
0.169848 0.654406 i 
0.172859 0.659704 i 
0.175898 0.664915 i 
0.178965 0.670041 i 
0.18206 0.675083 i 
0.185186 0.680045 i 
0.188342 0.684928 i 
0.191531 0.689734 i 
0.194752 0.694467 i 
0.198008 0.699126 i 
0.201298 0.703716 i 
0.204624 0.708237 i 
0.207987 0.712691 i 
0.211389 0.71708 i 
0.214829 0.721406 i 
0.21831 0.72567 i 
0.221832 0.729873 i 
0.225397 0.734018 i 
0.229005 0.738106 i 
0.232658 0.742138 i 
0.236357 0.746115 i 
0.240103 0.75004 i 
0.243897 0.753913 i 
0.247741 0.757735 i 
0.251636 0.761509 i 
0.255583 0.765234 i 
0.259584 0.768913 i 
0.263639 0.772547 i 
0.267751 0.776136 i 
0.271921 0.779682 i 
0.27615 0.783187 i 
0.28044 0.78665 i 
0.284793 0.790074 i 
0.28921 0.793459 i 
0.293692 0.796806 i 
0.298242 0.800117 i 
0.302862 0.803392 i 
0.307553 0.806632 i 
0.312317 0.80984 i 
0.317156 0.813014 i 
0.322072 0.816157 i 
0.327068 0.81927 i 
0.332146 0.822353 i 
0.337307 0.825408 i 
0.342555 0.828435 i 
0.347893 0.831435 i 
0.353322 0.83441 i 
0.358845 0.83736 i 
0.364467 0.840287 i 
0.370188 0.843192 i 
0.376014 0.846074 i 
0.381946 0.848936 i 
0.38799 0.851779 i 
0.394148 0.854603 i 
0.400424 0.85741 i 
0.406824 0.860201 i 
0.41335 0.862977 i 
0.420009 0.865739 i 
0.426804 0.868488 i 
0.433742 0.871225 i 
0.440828 0.873952 i 
0.448069 0.87667 i 
0.45547 0.879381 i 
0.46304 0.882086 i 
0.470755 0.884806 i 
0.478685 0.887503 i 
0.486808 0.890199 i 
0.495134 0.892895 i 
0.503673 0.895594 i 
0.512437 0.898298 i 
0.521439 0.901009 i 
0.530694 0.903729 i 
0.540216 0.906461 i 
0.550024 0.909209 i 
0.560137 0.911975 i 
0.570577 0.914763 i 
0.581368 0.917577 i 
0.59254 0.920423 i 
0.604126 0.923305 i 
0.616162 0.926229 i 
0.628693 0.929203 i 
0.641773 0.932235 i 
0.655463 0.935336 i 
0.66984 0.938518 i 
0.685 0.941796 i 
0.701061 0.94519 i 
0.718178 0.948725 i 
0.736558 0.952434 i 
0.756518 0.95635 i 
0.778412 0.960574 i 
0.802927 0.965197 i 
0.831205 0.970411 i 
0.865597 0.976611 i 
0.913062 0.984991 i 
0.961075 0.993309 i 
0.965186 0.994015 i 
0.969885 0.9948 i 
0.975416 0.995751 i 
0.982552 0.997028 i 
1 1 i 
