% liczba klatek: 2000000 
% Bumper: 100.5 
% Liczba wierszy: 2803 
33 -0.9999999999999998 
33 -0.9999999999999998 
24 0.0 
24 0.0 
22 0.30102999566398114 
22 0.6020599913279623 
21 0.6989700043360187 
21 0.6989700043360187 
20 0.7781512503836435 
20 0.7781512503836435 
19 0.8450980400142567 
19 0.8450980400142567 
18 0.9030899869919434 
18 1.041392685158225 
17 1.0791812460476247 
17 1.1461280356782377 
16 1.1760912590556811 
16 1.1760912590556811 
14 1.2041199826559246 
14 1.2552725051033058 
13 1.2787536009528289 
13 1.3979400086720375 
12 1.414973347970818 
12 1.4913616938342726 
11 1.5051499783199058 
11 1.6020599913279623 
10 1.6127838567197355 
10 1.6627578316815739 
9 1.6720978579357173 
9 1.7075701760979363 
8 1.716003343634799 
8 1.9294189257142926 
7 1.9344984512435675 
7 2.021189299069938 
6 2.02530586526477 
6 2.093421685162235 
5 2.0969100130080562 
5 2.123851640967086 
4 2.1271047983648073 
4 2.3502480183341623 
3 2.3521825181113623 
3 3.173477643452994 
2 3.1737688231366494 
2 3.2655253352190736 
1 3.2657609167176105 
1 3.4442009888641594 
