% liczba klatek: 2000000 
% Bumper: 100.5 
% Liczba wierszy: 2803 
70 -0.9999999999999998 
70 -0.9999999999999998 
68 0.0 
68 0.0 
64 0.30102999566398114 
64 0.30102999566398114 
62 0.47712125471966244 
62 0.47712125471966244 
59 0.6020599913279623 
59 0.6020599913279623 
58 0.6989700043360187 
58 0.6989700043360187 
55 0.7781512503836435 
55 0.7781512503836435 
54 0.8450980400142567 
54 0.8450980400142567 
53 0.9030899869919434 
53 0.9542425094393249 
52 1.0 
52 1.0 
49 1.041392685158225 
49 1.2304489213782739 
48 1.2552725051033058 
48 1.2552725051033058 
47 1.2787536009528289 
47 1.2787536009528289 
46 1.301029995663981 
46 1.301029995663981 
43 1.322219294733919 
43 1.3424226808222062 
42 1.3617278360175928 
42 1.380211241711606 
41 1.3979400086720375 
41 1.414973347970818 
40 1.4313637641589871 
40 1.462397997898956 
38 1.4771212547196624 
38 1.5051499783199058 
37 1.5185139398778873 
37 1.5314789170422551 
36 1.5440680443502754 
36 1.591064607026499 
35 1.6020599913279623 
35 1.6232492903979003 
34 1.6334684555795864 
34 1.6334684555795864 
33 1.6434526764861872 
33 1.6434526764861872 
32 1.6532125137753435 
32 1.6627578316815739 
31 1.6720978579357173 
31 1.7558748556724912 
30 1.7634279935629371 
30 1.7634279935629371 
29 1.7708520116421442 
29 1.8061799739838869 
28 1.8129133566428552 
28 1.8388490907372552 
27 1.845098040014257 
27 1.8633228601204557 
26 1.8692317197309762 
26 1.8920946026904801 
25 1.8976270912904412 
25 1.9493900066449126 
24 1.9542425094393248 
24 2.0334237554869494 
23 2.0374264979406234 
23 2.0606978403536114 
22 2.064457989226918 
22 2.0755469613925306 
21 2.0791812460476247 
21 2.0791812460476247 
20 2.08278537031645 
20 2.117271295655764 
19 2.1205739312058496 
19 2.1367205671564067 
18 2.1398790864012365 
18 2.1613680022349744 
17 2.1643528557844367 
17 2.181843587944772 
16 2.1846914308175984 
16 2.1931245983544616 
15 2.1958996524092336 
15 2.3159703454569174 
14 2.3180633349627615 
14 2.342422680822206 
13 2.34439227368511 
13 2.3483048630481607 
12 2.3502480183341623 
12 2.4393326938302624 
11 2.4409090820652173 
11 2.447158031342219 
10 2.4487063199050794 
10 2.5390760987927767 
9 2.5403294747908736 
9 2.57978359661681 
8 2.580924975675619 
8 2.629409599102719 
7 2.6304278750250236 
7 2.655138434811382 
6 2.656098202012832 
6 2.710117365111816 
5 2.7109631189952754 
5 2.8280150642239765 
4 2.8286598965353194 
4 3.156851901070011 
3 3.1571544399062814 
3 3.173477643452994 
2 3.1737688231366494 
2 3.2655253352190736 
1 3.2657609167176105 
1 3.4442009888641594 
