% liczba klatek: 2000000 
% Bumper: 100.5 
% Liczba wierszy: 2803 
65 -0.9999999999999998 
65 -0.9999999999999998 
60 0.0 
60 0.0 
59 0.30102999566398114 
59 0.30102999566398114 
56 0.47712125471966244 
56 0.47712125471966244 
51 0.6020599913279623 
51 0.6020599913279623 
47 0.6989700043360187 
47 0.6989700043360187 
46 0.7781512503836435 
46 0.8450980400142567 
43 0.9030899869919434 
43 0.9542425094393249 
42 1.0 
42 1.0 
41 1.041392685158225 
41 1.041392685158225 
39 1.0791812460476247 
39 1.1139433523068367 
37 1.1461280356782377 
37 1.1760912590556811 
36 1.2041199826559246 
36 1.2304489213782739 
35 1.2552725051033058 
35 1.3424226808222062 
34 1.3617278360175928 
34 1.380211241711606 
32 1.3979400086720375 
32 1.4313637641589871 
31 1.447158031342219 
31 1.5051499783199058 
30 1.5185139398778873 
30 1.5314789170422551 
29 1.5440680443502754 
29 1.5682017240669948 
28 1.57978359661681 
28 1.57978359661681 
27 1.591064607026499 
27 1.591064607026499 
26 1.6020599913279623 
26 1.6232492903979003 
25 1.6334684555795864 
25 1.6627578316815739 
24 1.6720978579357173 
24 1.7075701760979363 
22 1.716003343634799 
22 1.7403626894942439 
21 1.7481880270062005 
21 1.7481880270062005 
20 1.7558748556724912 
20 1.785329835010767 
19 1.7923916894982537 
19 1.8129133566428552 
18 1.8195439355418683 
18 1.8260748027008262 
17 1.8325089127062362 
17 1.8750612633916997 
16 1.8808135922807911 
16 1.9084850188786497 
15 1.9138138523837167 
15 1.9294189257142926 
14 1.9344984512435675 
14 1.9444826721501687 
13 1.9493900066449126 
13 1.9542425094393248 
12 1.9590413923210932 
12 2.0170333392987803 
11 2.021189299069938 
11 2.1271047983648073 
10 2.130333768495006 
10 2.2695129442179165 
9 2.271841606536499 
9 2.305351369446624 
8 2.3074960379132126 
8 2.436162647040756 
7 2.437750562820388 
7 2.655138434811382 
6 2.656098202012832 
6 2.710117365111816 
5 2.7109631189952754 
5 2.8280150642239765 
4 2.8286598965353194 
4 3.156851901070011 
3 3.1571544399062814 
3 3.173477643452994 
2 3.1737688231366494 
2 3.2655253352190736 
1 3.2657609167176105 
1 3.4442009888641594 
