% liczba klatek: 2000000 
% Bumper: 100.5 
% Liczba wierszy: 2803 
82 -0.9999999999999998 
82 -0.9999999999999998 
77 0.0 
77 0.0 
76 0.30102999566398114 
76 0.30102999566398114 
72 0.47712125471966244 
72 0.47712125471966244 
71 0.6020599913279623 
71 0.6020599913279623 
68 0.6989700043360187 
68 0.6989700043360187 
64 0.7781512503836435 
64 0.7781512503836435 
63 0.8450980400142567 
63 0.9030899869919434 
62 0.9542425094393249 
62 0.9542425094393249 
61 1.0 
61 1.0 
60 1.041392685158225 
60 1.1139433523068367 
58 1.1461280356782377 
58 1.2304489213782739 
56 1.2552725051033058 
56 1.2552725051033058 
54 1.2787536009528289 
54 1.322219294733919 
52 1.3424226808222062 
52 1.3424226808222062 
51 1.3617278360175928 
51 1.3617278360175928 
50 1.380211241711606 
50 1.3979400086720375 
49 1.414973347970818 
49 1.414973347970818 
48 1.4313637641589871 
48 1.4313637641589871 
47 1.447158031342219 
47 1.447158031342219 
46 1.462397997898956 
46 1.462397997898956 
45 1.4771212547196624 
45 1.4771212547196624 
44 1.4913616938342726 
44 1.5051499783199058 
43 1.5185139398778873 
43 1.556302500767287 
42 1.5682017240669948 
42 1.57978359661681 
41 1.591064607026499 
41 1.591064607026499 
40 1.6020599913279623 
40 1.6434526764861872 
39 1.6532125137753435 
39 1.6720978579357173 
38 1.6812412373755872 
38 1.6812412373755872 
36 1.6901960800285134 
36 1.6989700043360185 
35 1.7075701760979363 
35 1.716003343634799 
34 1.724275869600789 
34 1.7323937598229684 
33 1.7403626894942439 
33 1.785329835010767 
31 1.7923916894982537 
31 1.8750612633916997 
30 1.8808135922807911 
30 1.8864907251724818 
29 1.8920946026904801 
29 1.9030899869919433 
28 1.9084850188786497 
28 1.9493900066449126 
27 1.9542425094393248 
27 2.0569048513364723 
26 2.0606978403536114 
26 2.0755469613925306 
25 2.0791812460476247 
25 2.110589710299249 
24 2.1139433523068365 
24 2.176091259055681 
23 2.1789769472931693 
23 2.2227164711475833 
22 2.2253092817258624 
22 2.2304489213782737 
21 2.2329961103921536 
21 2.2504200023088936 
20 2.252853030979893 
20 2.2922560713564755 
19 2.294466226161593 
19 2.3180633349627615 
18 2.320146286111054 
18 2.359835482339888 
17 2.3617278360175926 
17 2.3783979009481375 
16 2.380211241711606 
16 2.396199347095736 
15 2.397940008672037 
15 2.4297522800024076 
14 2.4313637641589874 
14 2.469822015978163 
13 2.4712917110589383 
13 2.517195897949974 
12 2.518513939877887 
12 2.5327543789924976 
11 2.5340261060561344 
11 2.5563025007672873 
10 2.5575072019056577 
10 2.5831987739686224 
9 2.5843312243675305 
9 2.597695185925512 
8 2.598790506763115 
8 2.629409599102719 
7 2.6304278750250236 
7 2.655138434811382 
6 2.656098202012832 
6 2.710117365111816 
5 2.7109631189952754 
5 2.8280150642239765 
4 2.8286598965353194 
4 3.156851901070011 
3 3.1571544399062814 
3 3.173477643452994 
2 3.1737688231366494 
2 3.2655253352190736 
1 3.2657609167176105 
1 3.4442009888641594 
