
# Curve 0 of 1, 100 points
# Curve title: "xx(alpha),tau(alpha)"
# x y type
 0.00000  0.00000  i
 0.00518  0.00025  i
 0.01072  0.00101  i
 0.01659  0.00226  i
 0.02281  0.00402  i
 0.02936  0.00628  i
 0.03624  0.00904  i
 0.04344  0.01229  i
 0.05095  0.01603  i
 0.05876  0.02025  i
 0.06687  0.02496  i
 0.07527  0.03015  i
 0.08395  0.03582  i
 0.09290  0.04195  i
 0.10211  0.04854  i
 0.11158  0.05558  i
 0.12129  0.06308  i
 0.13124  0.07101  i
 0.14140  0.07937  i
 0.15179  0.08816  i
 0.16237  0.09736  i
 0.17315  0.10697  i
 0.18411  0.11698  i
 0.19524  0.12737  i
 0.20653  0.13813  i
 0.21796  0.14926  i
 0.22954  0.16075  i
 0.24123  0.17257  i
 0.25305  0.18472  i
 0.26496  0.19720  i
 0.27696  0.20997  i
 0.28904  0.22304  i
 0.30118  0.23639  i
 0.31338  0.25000  i
 0.32562  0.26386  i
 0.33788  0.27797  i
 0.35016  0.29229  i
 0.36245  0.30683  i
 0.37472  0.32156  i
 0.38698  0.33647  i
 0.39920  0.35154  i
 0.41137  0.36676  i
 0.42349  0.38212  i
 0.43554  0.39760  i
 0.44750  0.41318  i
 0.45937  0.42884  i
 0.47113  0.44458  i
 0.48277  0.46038  i
 0.49429  0.47621  i
 0.50566  0.49207  i
 0.51688  0.50793  i
 0.52793  0.52379  i
 0.53881  0.53962  i
 0.54950  0.55542  i
 0.56000  0.57116  i
 0.57029  0.58682  i
 0.58036  0.60240  i
 0.59020  0.61788  i
 0.59980  0.63324  i
 0.60915  0.64846  i
 0.61825  0.66353  i
 0.62708  0.67844  i
 0.63564  0.69317  i
 0.64391  0.70771  i
 0.65189  0.72203  i
 0.65956  0.73614  i
 0.66693  0.75000  i
 0.67399  0.76361  i
 0.68072  0.77696  i
 0.68712  0.79003  i
 0.69319  0.80280  i
 0.69891  0.81528  i
 0.70429  0.82743  i
 0.70931  0.83925  i
 0.71398  0.85074  i
 0.71828  0.86187  i
 0.72222  0.87263  i
 0.72578  0.88302  i
 0.72897  0.89303  i
 0.73178  0.90264  i
 0.73421  0.91184  i
 0.73626  0.92063  i
 0.73792  0.92899  i
 0.73920  0.93692  i
 0.74008  0.94442  i
 0.74058  0.95146  i
 0.74069  0.95805  i
 0.74041  0.96418  i
 0.73973  0.96985  i
 0.73867  0.97504  i
 0.73722  0.97975  i
 0.73539  0.98397  i
 0.73317  0.98771  i
 0.73057  0.99096  i
 0.72759  0.99372  i
 0.72423  0.99598  i
 0.72050  0.99774  i
 0.71640  0.99899  i
 0.71193  0.99975  i
 0.70711  1.00000  i

