
# Curve 0 of 1, 100 points
# Curve title: "xx(alpha),tau(alpha)"
# x y type
-0.00000  0.00000  i
-0.02162  0.00025  i
-0.04286  0.00101  i
-0.06371  0.00226  i
-0.08413  0.00402  i
-0.10411  0.00628  i
-0.12364  0.00904  i
-0.14268  0.01229  i
-0.16122  0.01603  i
-0.17924  0.02025  i
-0.19673  0.02496  i
-0.21366  0.03015  i
-0.23002  0.03582  i
-0.24580  0.04195  i
-0.26097  0.04854  i
-0.27552  0.05558  i
-0.28944  0.06308  i
-0.30271  0.07101  i
-0.31532  0.07937  i
-0.32726  0.08816  i
-0.33851  0.09736  i
-0.34906  0.10697  i
-0.35891  0.11698  i
-0.36804  0.12737  i
-0.37644  0.13813  i
-0.38411  0.14926  i
-0.39104  0.16075  i
-0.39721  0.17257  i
-0.40263  0.18472  i
-0.40729  0.19720  i
-0.41118  0.20997  i
-0.41430  0.22304  i
-0.41665  0.23639  i
-0.41823  0.25000  i
-0.41902  0.26386  i
-0.41904  0.27797  i
-0.41828  0.29229  i
-0.41674  0.30683  i
-0.41443  0.32156  i
-0.41134  0.33647  i
-0.40749  0.35154  i
-0.40287  0.36676  i
-0.39748  0.38212  i
-0.39134  0.39760  i
-0.38445  0.41318  i
-0.37682  0.42884  i
-0.36845  0.44458  i
-0.35935  0.46038  i
-0.34954  0.47621  i
-0.33902  0.49207  i
-0.32780  0.50793  i
-0.31589  0.52379  i
-0.30332  0.53962  i
-0.29007  0.55542  i
-0.27619  0.57116  i
-0.26166  0.58682  i
-0.24652  0.60240  i
-0.23078  0.61788  i
-0.21444  0.63324  i
-0.19753  0.64846  i
-0.18007  0.66353  i
-0.16207  0.67844  i
-0.14356  0.69317  i
-0.12454  0.70771  i
-0.10504  0.72203  i
-0.08508  0.73614  i
-0.06467  0.75000  i
-0.04385  0.76361  i
-0.02262  0.77696  i
-0.00102  0.79003  i
 0.02094  0.80280  i
 0.04324  0.81528  i
 0.06584  0.82743  i
 0.08874  0.83925  i
 0.11191  0.85074  i
 0.13531  0.86187  i
 0.15894  0.87263  i
 0.18276  0.88302  i
 0.20676  0.89303  i
 0.23090  0.90264  i
 0.25517  0.91184  i
 0.27953  0.92063  i
 0.30397  0.92899  i
 0.32846  0.93692  i
 0.35298  0.94442  i
 0.37750  0.95146  i
 0.40199  0.95805  i
 0.42643  0.96418  i
 0.45080  0.96985  i
 0.47507  0.97504  i
 0.49922  0.97975  i
 0.52322  0.98397  i
 0.54706  0.98771  i
 0.57069  0.99096  i
 0.59411  0.99372  i
 0.61729  0.99598  i
 0.64020  0.99774  i
 0.66282  0.99899  i
 0.68513  0.99975  i
 0.70711  1.00000  i

