0 0.866025 i 
1.0845e-06 0.865885 i 
3.06685e-06 0.865746 i 
5.63311e-06 0.865607 i 
8.67112e-06 0.865468 i 
1.2116e-05 0.86533 i 
1.59239e-05 0.865193 i 
2.00627e-05 0.865056 i 
2.45073e-05 0.864919 i 
2.92377e-05 0.864782 i 
3.42372e-05 0.864645 i 
3.94918e-05 0.864509 i 
4.49892e-05 0.864373 i 
5.0719e-05 0.864238 i 
5.66718e-05 0.864102 i 
6.28393e-05 0.863967 i 
6.92139e-05 0.863832 i 
7.5789e-05 0.863697 i 
8.25584e-05 0.863562 i 
8.95164e-05 0.863428 i 
9.66577e-05 0.863294 i 
0.000103978 0.86316 i 
0.000111472 0.863026 i 
0.000119136 0.862892 i 
0.000126966 0.862758 i 
0.000134959 0.862625 i 
0.00014311 0.862492 i 
0.000151417 0.862358 i 
0.000159878 0.862225 i 
0.000168487 0.862093 i 
0.000177244 0.86196 i 
0.000186146 0.861827 i 
0.000195189 0.861695 i 
0.000204372 0.861563 i 
0.000213693 0.861431 i 
0.000223149 0.861299 i 
0.000232738 0.861167 i 
0.000242458 0.861035 i 
0.000252307 0.860904 i 
0.000262284 0.860772 i 
0.000272386 0.860641 i 
0.000282613 0.86051 i 
0.000292962 0.860379 i 
0.000303431 0.860248 i 
0.00031402 0.860117 i 
0.000324727 0.859986 i 
0.00033555 0.859856 i 
0.000346488 0.859725 i 
0.00035754 0.859595 i 
0.000368704 0.859464 i 
0.00037998 0.859334 i 
0.000391365 0.859204 i 
0.000402859 0.859074 i 
0.000414461 0.858945 i 
0.000426169 0.858815 i 
0.000437982 0.858685 i 
0.0004499 0.858556 i 
0.000461921 0.858426 i 
0.000474045 0.858297 i 
0.00048627 0.858168 i 
0.000498595 0.858039 i 
0.00051102 0.85791 i 
0.000523543 0.857781 i 
0.000536164 0.857652 i 
0.000548882 0.857523 i 
0.000561696 0.857395 i 
0.000574604 0.857266 i 
0.000587608 0.857138 i 
0.000600704 0.857009 i 
0.000613894 0.856881 i 
0.000627176 0.856753 i 
0.000640549 0.856625 i 
0.000654012 0.856497 i 
0.000667565 0.856369 i 
0.000681208 0.856241 i 
0.000694939 0.856114 i 
0.000708758 0.855986 i 
0.000722664 0.855859 i 
0.000736656 0.855731 i 
0.000750734 0.855604 i 
0.000764898 0.855477 i 
0.000779146 0.855349 i 
0.000793479 0.855222 i 
0.000807894 0.855095 i 
0.000822393 0.854968 i 
0.000836974 0.854842 i 
0.000851637 0.854715 i 
0.000866381 0.854588 i 
0.000881206 0.854462 i 
0.000896111 0.854335 i 
0.000911096 0.854209 i 
0.000926159 0.854082 i 
0.000941302 0.853956 i 
0.000956522 0.85383 i 
0.000971821 0.853704 i 
0.000987196 0.853578 i 
0.00100265 0.853452 i 
0.00101818 0.853326 i 
0.00103378 0.8532 i 
0.00104946 0.853074 i 
0.00106521 0.852948 i 
0.00106521 0.852948 i 
0.00194014 0.846752 i 
0.00296223 0.840703 i 
0.0041065 0.834777 i 
0.00535594 0.828955 i 
0.00669801 0.823226 i 
0.00812296 0.81758 i 
0.009623 0.812009 i 
0.0111917 0.806506 i 
0.0128236 0.801067 i 
0.0145142 0.795687 i 
0.0162594 0.790361 i 
0.0180558 0.785086 i 
0.0199003 0.77986 i 
0.0217902 0.774679 i 
0.0237231 0.76954 i 
0.0256967 0.764443 i 
0.027709 0.759384 i 
0.0297584 0.754362 i 
0.031843 0.749376 i 
0.0339616 0.744423 i 
0.0361125 0.739503 i 
0.0382947 0.734614 i 
0.0405069 0.729756 i 
0.042748 0.724926 i 
0.045017 0.720124 i 
0.0473129 0.715348 i 
0.0496349 0.710599 i 
0.0519822 0.705876 i 
0.054354 0.701176 i 
0.0567495 0.696501 i 
0.0591682 0.691848 i 
0.0616092 0.687218 i 
0.0640721 0.68261 i 
0.0665563 0.678023 i 
0.0690612 0.673457 i 
0.0715863 0.668911 i 
0.0741312 0.664385 i 
0.0766953 0.659878 i 
0.0792782 0.65539 i 
0.0818796 0.65092 i 
0.084499 0.646468 i 
0.0871361 0.642034 i 
0.0897904 0.637618 i 
0.0924617 0.633218 i 
0.0951496 0.628835 i 
0.0978539 0.624468 i 
0.100574 0.620117 i 
0.10331 0.615782 i 
0.106062 0.611463 i 
0.108828 0.607158 i 
0.11161 0.602869 i 
0.114406 0.598594 i 
0.117217 0.594334 i 
0.120042 0.590088 i 
0.122881 0.585856 i 
0.125734 0.581637 i 
0.128601 0.577433 i 
0.131481 0.573242 i 
0.134374 0.569064 i 
0.13728 0.5649 i 
0.1402 0.560748 i 
0.143132 0.556609 i 
0.146076 0.552482 i 
0.149034 0.548369 i 
0.152003 0.544267 i 
0.154985 0.540178 i 
0.157979 0.5361 i 
0.160984 0.532035 i 
0.164002 0.527981 i 
0.167031 0.523939 i 
0.170071 0.519909 i 
0.173124 0.51589 i 
0.176187 0.511882 i 
0.179262 0.507886 i 
0.182348 0.503901 i 
0.185444 0.499927 i 
0.188552 0.495963 i 
0.191671 0.492011 i 
0.1948 0.488069 i 
0.19794 0.484138 i 
0.201091 0.480218 i 
0.204252 0.476308 i 
0.207424 0.472409 i 
0.210606 0.46852 i 
0.213799 0.464641 i 
0.217001 0.460773 i 
0.220214 0.456914 i 
0.223437 0.453066 i 
0.22667 0.449228 i 
0.229913 0.4454 i 
0.233166 0.441582 i 
0.236429 0.437774 i 
0.239702 0.433976 i 
0.242984 0.430187 i 
0.246276 0.426408 i 
0.249578 0.422639 i 
0.25289 0.41888 i 
0.256211 0.41513 i 
0.259542 0.41139 i 
0.262882 0.407659 i 
0.266232 0.403938 i 
0.269592 0.400226 i 
0.272961 0.396524 i 
0.276339 0.392831 i 
0.279727 0.389148 i 
0.283124 0.385474 i 
0.28653 0.381809 i 
0.289946 0.378154 i 
0.293371 0.374508 i 
0.296805 0.370871 i 
0.300249 0.367244 i 
0.303702 0.363625 i 
0.307164 0.360017 i 
0.310635 0.356417 i 
0.314116 0.352826 i 
0.317606 0.349245 i 
0.321105 0.345673 i 
0.324613 0.34211 i 
0.32813 0.338556 i 
0.331657 0.335012 i 
0.335193 0.331477 i 
0.338738 0.327951 i 
0.342292 0.324434 i 
0.345855 0.320926 i 
0.349428 0.317427 i 
0.353009 0.313938 i 
0.3566 0.310458 i 
0.3602 0.306987 i 
0.36381 0.303525 i 
0.367429 0.300073 i 
0.371056 0.29663 i 
0.374694 0.293196 i 
0.37834 0.289771 i 
0.381996 0.286356 i 
0.385661 0.28295 i 
0.389335 0.279554 i 
0.393019 0.276166 i 
0.396713 0.272789 i 
0.400415 0.26942 i 
0.404127 0.266061 i 
0.407849 0.262712 i 
0.41158 0.259372 i 
0.415321 0.256041 i 
0.419071 0.252721 i 
0.422831 0.24941 i 
0.426601 0.246108 i 
0.43038 0.242816 i 
0.434169 0.239534 i 
0.437968 0.236262 i 
0.441777 0.233 i 
0.445595 0.229747 i 
0.449424 0.226505 i 
0.453262 0.223272 i 
0.457111 0.22005 i 
0.46097 0.216838 i 
0.464839 0.213636 i 
0.468718 0.210444 i 
0.472608 0.207262 i 
0.476507 0.204091 i 
0.480418 0.20093 i 
0.484339 0.19778 i 
0.48827 0.19464 i 
0.492212 0.191512 i 
0.496165 0.188393 i 
0.500129 0.185286 i 
0.504104 0.18219 i 
0.50809 0.179105 i 
0.512087 0.17603 i 
0.516095 0.172968 i 
0.520114 0.169916 i 
0.524145 0.166876 i 
0.528188 0.163847 i 
0.532242 0.160831 i 
0.536308 0.157826 i 
0.540386 0.154832 i 
0.544476 0.151851 i 
0.548578 0.148882 i 
0.552693 0.145926 i 
0.55682 0.142982 i 
0.560959 0.14005 i 
0.565112 0.137132 i 
0.569277 0.134226 i 
0.573455 0.131333 i 
0.577647 0.128454 i 
0.581852 0.125588 i 
0.586071 0.122736 i 
0.590304 0.119898 i 
0.594551 0.117073 i 
0.598812 0.114263 i 
0.603087 0.111468 i 
0.607377 0.108687 i 
0.611683 0.105921 i 
0.616003 0.10317 i 
0.620339 0.100435 i 
0.62469 0.0977155 i 
0.629058 0.0950121 i 
0.633442 0.092325 i 
0.637843 0.0896546 i 
0.64226 0.0870011 i 
0.646695 0.0843649 i 
0.651148 0.0817464 i 
0.655618 0.079146 i 
0.660107 0.076564 i 
0.664615 0.0740008 i 
0.669143 0.071457 i 
0.67369 0.0689329 i 
0.678257 0.066429 i 
0.682845 0.0639459 i 
0.687454 0.0614841 i 
0.692085 0.0590442 i 
0.696739 0.0566267 i 
0.701416 0.0542324 i 
0.706116 0.0518619 i 
0.710841 0.0495158 i 
0.715591 0.0471951 i 
0.720368 0.0449005 i 
0.725171 0.0426329 i 
0.730003 0.0403933 i 
0.734863 0.0381826 i 
0.739754 0.036002 i 
0.744675 0.0338527 i 
0.74963 0.0317358 i 
0.754618 0.0296529 i 
0.759641 0.0276054 i 
0.764702 0.025595 i 
0.769801 0.0236234 i 
0.774942 0.0216927 i 
0.780125 0.0198051 i 
0.785354 0.017963 i 
0.790631 0.0161691 i 
0.79596 0.0144266 i 
0.801343 0.0127389 i 
0.806786 0.0111101 i 
0.812291 0.00954475 i 
0.817866 0.00804838 i 
0.823516 0.00662745 i 
0.82925 0.00528985 i 
0.835076 0.00404545 i 
0.841009 0.00290695 i 
0.847065 0.00189167 i 
0.852948 0.00106521 i 
0.852961 0.00106364 i 
0.852974 0.00106206 i 
0.852986 0.00106048 i 
0.852999 0.0010589 i 
0.853011 0.00105733 i 
0.853024 0.00105575 i 
0.853036 0.00105418 i 
0.853049 0.0010526 i 
0.853062 0.00105103 i 
0.853074 0.00104946 i 
0.853087 0.00104789 i 
0.853099 0.00104632 i 
0.853112 0.00104475 i 
0.853124 0.00104318 i 
0.853137 0.00104161 i 
0.85315 0.00104004 i 
0.853162 0.00103848 i 
0.853175 0.00103691 i 
0.853187 0.00103535 i 
0.8532 0.00103378 i 
0.853212 0.00103222 i 
0.853225 0.00103065 i 
0.853238 0.00102909 i 
0.85325 0.00102753 i 
0.853263 0.00102597 i 
0.853275 0.00102441 i 
0.853288 0.00102285 i 
0.853301 0.00102129 i 
0.853313 0.00101973 i 
0.853326 0.00101818 i 
0.853338 0.00101662 i 
0.853351 0.00101506 i 
0.853363 0.00101351 i 
0.853376 0.00101196 i 
0.853389 0.0010104 i 
0.853401 0.00100885 i 
0.853414 0.0010073 i 
0.853426 0.00100575 i 
0.853439 0.0010042 i 
0.853452 0.00100265 i 
0.853464 0.0010011 i 
0.853477 0.000999551 i 
0.853489 0.000998004 i 
0.853502 0.000996458 i 
0.853515 0.000994912 i 
0.853527 0.000993368 i 
0.85354 0.000991823 i 
0.853552 0.00099028 i 
0.853565 0.000988738 i 
0.853578 0.000987196 i 
0.85359 0.000985655 i 
0.853603 0.000984115 i 
0.853615 0.000982575 i 
0.853628 0.000981037 i 
0.853641 0.000979499 i 
0.853653 0.000977961 i 
0.853666 0.000976425 i 
0.853678 0.000974889 i 
0.853691 0.000973355 i 
0.853704 0.000971821 i 
0.853716 0.000970287 i 
0.853729 0.000968755 i 
0.853741 0.000967223 i 
0.853754 0.000965692 i 
0.853767 0.000964162 i 
0.853779 0.000962632 i 
0.853792 0.000961104 i 
0.853805 0.000959576 i 
0.853817 0.000958049 i 
0.85383 0.000956522 i 
0.853842 0.000954997 i 
0.853855 0.000953472 i 
0.853868 0.000951948 i 
0.85388 0.000950425 i 
0.853893 0.000948902 i 
0.853905 0.000947381 i 
0.853918 0.00094586 i 
0.853931 0.00094434 i 
0.853943 0.00094282 i 
0.853956 0.000941302 i 
0.853969 0.000939784 i 
0.853981 0.000938267 i 
0.853994 0.000936751 i 
0.854006 0.000935235 i 
0.854019 0.000933721 i 
0.854032 0.000932207 i 
0.854044 0.000930694 i 
0.854057 0.000929182 i 
0.85407 0.00092767 i 
0.854082 0.000926159 i 
0.854095 0.000924649 i 
0.854107 0.00092314 i 
0.85412 0.000921632 i 
0.854133 0.000920124 i 
0.854145 0.000918618 i 
0.854158 0.000917112 i 
0.854171 0.000915606 i 
0.854183 0.000914102 i 
0.854196 0.000912598 i 
0.854209 0.000911096 i 
0.854221 0.000909594 i 
0.854234 0.000908092 i 
0.854246 0.000906592 i 
0.854259 0.000905092 i 
0.854272 0.000903593 i 
0.854284 0.000902095 i 
0.854297 0.000900598 i 
0.85431 0.000899102 i 
0.854322 0.000897606 i 
0.854335 0.000896111 i 
0.854348 0.000894617 i 
0.85436 0.000893124 i 
0.854373 0.000891631 i 
0.854386 0.000890139 i 
0.854398 0.000888648 i 
0.854411 0.000887158 i 
0.854424 0.000885669 i 
0.854436 0.000884181 i 
0.854449 0.000882693 i 
0.854462 0.000881206 i 
0.854474 0.00087972 i 
0.854487 0.000878235 i 
0.8545 0.00087675 i 
0.854512 0.000875266 i 
0.854525 0.000873784 i 
0.854537 0.000872301 i 
0.85455 0.00087082 i 
0.854563 0.00086934 i 
0.854575 0.00086786 i 
0.854588 0.000866381 i 
0.854601 0.000864903 i 
0.854613 0.000863426 i 
0.854626 0.000861949 i 
0.854639 0.000860474 i 
0.854651 0.000858999 i 
0.854664 0.000857525 i 
0.854677 0.000856052 i 
0.854689 0.000854579 i 
0.854702 0.000853108 i 
0.854715 0.000851637 i 
0.854727 0.000850167 i 
0.85474 0.000848698 i 
0.854753 0.00084723 i 
0.854765 0.000845762 i 
0.854778 0.000844295 i 
0.854791 0.00084283 i 
0.854804 0.000841365 i 
0.854816 0.0008399 i 
0.854829 0.000838437 i 
0.854842 0.000836974 i 
0.854854 0.000835512 i 
0.854867 0.000834051 i 
0.85488 0.000832591 i 
0.854892 0.000831132 i 
0.854905 0.000829673 i 
0.854918 0.000828216 i 
0.85493 0.000826759 i 
0.854943 0.000825303 i 
0.854956 0.000823848 i 
0.854968 0.000822393 i 
0.854981 0.00082094 i 
0.854994 0.000819487 i 
0.855006 0.000818035 i 
0.855019 0.000816584 i 
0.855032 0.000815133 i 
0.855045 0.000813684 i 
0.855057 0.000812235 i 
0.85507 0.000810788 i 
0.855083 0.000809341 i 
0.855095 0.000807894 i 
0.855108 0.000806449 i 
0.855121 0.000805005 i 
0.855133 0.000803561 i 
0.855146 0.000802118 i 
0.855159 0.000800676 i 
0.855172 0.000799235 i 
0.855184 0.000797795 i 
0.855197 0.000796355 i 
0.85521 0.000794916 i 
0.855222 0.000793479 i 
0.855235 0.000792042 i 
0.855248 0.000790605 i 
0.85526 0.00078917 i 
0.855273 0.000787736 i 
0.855286 0.000786302 i 
0.855299 0.000784869 i 
0.855311 0.000783437 i 
0.855324 0.000782006 i 
0.855337 0.000780576 i 
0.855349 0.000779146 i 
0.855362 0.000777718 i 
0.855375 0.00077629 i 
0.855388 0.000774863 i 
0.8554 0.000773437 i 
0.855413 0.000772012 i 
0.855426 0.000770587 i 
0.855438 0.000769164 i 
0.855451 0.000767741 i 
0.855464 0.000766319 i 
0.855477 0.000764898 i 
0.855489 0.000763478 i 
0.855502 0.000762058 i 
0.855515 0.00076064 i 
0.855527 0.000759222 i 
0.85554 0.000757806 i 
0.855553 0.00075639 i 
0.855566 0.000754975 i 
0.855578 0.00075356 i 
0.855591 0.000752147 i 
0.855604 0.000750734 i 
0.855617 0.000749323 i 
0.855629 0.000747912 i 
0.855642 0.000746502 i 
0.855655 0.000745093 i 
0.855668 0.000743684 i 
0.85568 0.000742277 i 
0.855693 0.000740871 i 
0.855706 0.000739465 i 
0.855718 0.00073806 i 
0.855731 0.000736656 i 
0.855744 0.000735253 i 
0.855757 0.000733851 i 
0.855769 0.000732449 i 
0.855782 0.000731049 i 
0.855795 0.000729649 i 
0.855808 0.00072825 i 
0.85582 0.000726852 i 
0.855833 0.000725455 i 
0.855846 0.000724059 i 
0.855859 0.000722664 i 
0.855871 0.000721269 i 
0.855884 0.000719875 i 
0.855897 0.000718483 i 
0.85591 0.000717091 i 
0.855922 0.0007157 i 
0.855935 0.00071431 i 
0.855948 0.00071292 i 
0.855961 0.000711532 i 
0.855973 0.000710144 i 
0.855986 0.000708758 i 
0.855999 0.000707372 i 
0.856012 0.000705987 i 
0.856024 0.000704603 i 
0.856037 0.00070322 i 
0.85605 0.000701837 i 
0.856063 0.000700456 i 
0.856075 0.000699075 i 
0.856088 0.000697696 i 
0.856101 0.000696317 i 
0.856114 0.000694939 i 
0.856127 0.000693562 i 
0.856139 0.000692186 i 
0.856152 0.00069081 i 
0.856165 0.000689436 i 
0.856178 0.000688062 i 
0.85619 0.00068669 i 
0.856203 0.000685318 i 
0.856216 0.000683947 i 
0.856229 0.000682577 i 
0.856241 0.000681208 i 
0.856254 0.00067984 i 
0.856267 0.000678472 i 
0.85628 0.000677106 i 
0.856293 0.00067574 i 
0.856305 0.000674375 i 
0.856318 0.000673012 i 
0.856331 0.000671649 i 
0.856344 0.000670287 i 
0.856356 0.000668926 i 
0.856369 0.000667565 i 
0.856382 0.000666206 i 
0.856395 0.000664848 i 
0.856408 0.00066349 i 
0.85642 0.000662133 i 
0.856433 0.000660777 i 
0.856446 0.000659423 i 
0.856459 0.000658069 i 
0.856471 0.000656716 i 
0.856484 0.000655363 i 
0.856497 0.000654012 i 
0.85651 0.000652662 i 
0.856523 0.000651312 i 
0.856535 0.000649964 i 
0.856548 0.000648616 i 
0.856561 0.000647269 i 
0.856574 0.000645923 i 
0.856587 0.000644578 i 
0.856599 0.000643234 i 
0.856612 0.000641891 i 
0.856625 0.000640549 i 
0.856638 0.000639207 i 
0.856651 0.000637867 i 
0.856663 0.000636527 i 
0.856676 0.000635188 i 
0.856689 0.000633851 i 
0.856702 0.000632514 i 
0.856715 0.000631178 i 
0.856727 0.000629843 i 
0.85674 0.000628509 i 
0.856753 0.000627176 i 
0.856766 0.000625843 i 
0.856779 0.000624512 i 
0.856792 0.000623182 i 
0.856804 0.000621852 i 
0.856817 0.000620523 i 
0.85683 0.000619196 i 
0.856843 0.000617869 i 
0.856856 0.000616543 i 
0.856868 0.000615218 i 
0.856881 0.000613894 i 
0.856894 0.000612571 i 
0.856907 0.000611249 i 
0.85692 0.000609927 i 
0.856933 0.000608607 i 
0.856945 0.000607288 i 
0.856958 0.000605969 i 
0.856971 0.000604652 i 
0.856984 0.000603335 i 
0.856997 0.000602019 i 
0.857009 0.000600704 i 
0.857022 0.000599391 i 
0.857035 0.000598078 i 
0.857048 0.000596766 i 
0.857061 0.000595455 i 
0.857074 0.000594144 i 
0.857086 0.000592835 i 
0.857099 0.000591527 i 
0.857112 0.00059022 i 
0.857125 0.000588913 i 
0.857138 0.000587608 i 
0.857151 0.000586303 i 
0.857163 0.000584999 i 
0.857176 0.000583697 i 
0.857189 0.000582395 i 
0.857202 0.000581094 i 
0.857215 0.000579794 i 
0.857228 0.000578496 i 
0.857241 0.000577198 i 
0.857253 0.000575901 i 
0.857266 0.000574604 i 
0.857279 0.000573309 i 
0.857292 0.000572015 i 
0.857305 0.000570722 i 
0.857318 0.000569429 i 
0.85733 0.000568138 i 
0.857343 0.000566848 i 
0.857356 0.000565558 i 
0.857369 0.00056427 i 
0.857382 0.000562982 i 
0.857395 0.000561696 i 
0.857408 0.00056041 i 
0.85742 0.000559125 i 
0.857433 0.000557841 i 
0.857446 0.000556559 i 
0.857459 0.000555277 i 
0.857472 0.000553996 i 
0.857485 0.000552716 i 
0.857498 0.000551437 i 
0.85751 0.000550159 i 
0.857523 0.000548882 i 
0.857536 0.000547606 i 
0.857549 0.00054633 i 
0.857562 0.000545056 i 
0.857575 0.000543783 i 
0.857588 0.000542511 i 
0.857601 0.00054124 i 
0.857613 0.000539969 i 
0.857626 0.0005387 i 
0.857639 0.000537431 i 
0.857652 0.000536164 i 
0.857665 0.000534898 i 
0.857678 0.000533632 i 
0.857691 0.000532367 i 
0.857704 0.000531104 i 
0.857716 0.000529841 i 
0.857729 0.00052858 i 
0.857742 0.000527319 i 
0.857755 0.000526059 i 
0.857768 0.000524801 i 
0.857781 0.000523543 i 
0.857794 0.000522286 i 
0.857807 0.000521031 i 
0.857819 0.000519776 i 
0.857832 0.000518522 i 
0.857845 0.000517269 i 
0.857858 0.000516017 i 
0.857871 0.000514766 i 
0.857884 0.000513517 i 
0.857897 0.000512268 i 
0.85791 0.00051102 i 
0.857923 0.000509773 i 
0.857936 0.000508527 i 
0.857948 0.000507282 i 
0.857961 0.000506038 i 
0.857974 0.000504795 i 
0.857987 0.000503553 i 
0.858 0.000502312 i 
0.858013 0.000501072 i 
0.858026 0.000499833 i 
0.858039 0.000498595 i 
0.858052 0.000497358 i 
0.858065 0.000496122 i 
0.858077 0.000494887 i 
0.85809 0.000493653 i 
0.858103 0.00049242 i 
0.858116 0.000491188 i 
0.858129 0.000489957 i 
0.858142 0.000488727 i 
0.858155 0.000487498 i 
0.858168 0.00048627 i 
0.858181 0.000485043 i 
0.858194 0.000483817 i 
0.858207 0.000482592 i 
0.858219 0.000481368 i 
0.858232 0.000480145 i 
0.858245 0.000478923 i 
0.858258 0.000477702 i 
0.858271 0.000476482 i 
0.858284 0.000475263 i 
0.858297 0.000474045 i 
0.85831 0.000472828 i 
0.858323 0.000471612 i 
0.858336 0.000470397 i 
0.858349 0.000469183 i 
0.858362 0.00046797 i 
0.858375 0.000466759 i 
0.858388 0.000465548 i 
0.8584 0.000464338 i 
0.858413 0.000463129 i 
0.858426 0.000461921 i 
0.858439 0.000460715 i 
0.858452 0.000459509 i 
0.858465 0.000458304 i 
0.858478 0.000457101 i 
0.858491 0.000455898 i 
0.858504 0.000454696 i 
0.858517 0.000453496 i 
0.85853 0.000452296 i 
0.858543 0.000451098 i 
0.858556 0.0004499 i 
0.858569 0.000448704 i 
0.858582 0.000447508 i 
0.858595 0.000446314 i 
0.858607 0.000445121 i 
0.85862 0.000443928 i 
0.858633 0.000442737 i 
0.858646 0.000441547 i 
0.858659 0.000440358 i 
0.858672 0.000439169 i 
0.858685 0.000437982 i 
0.858698 0.000436796 i 
0.858711 0.000435611 i 
0.858724 0.000434427 i 
0.858737 0.000433244 i 
0.85875 0.000432062 i 
0.858763 0.000430882 i 
0.858776 0.000429702 i 
0.858789 0.000428523 i 
0.858802 0.000427345 i 
0.858815 0.000426169 i 
0.858828 0.000424993 i 
0.858841 0.000423819 i 
0.858854 0.000422645 i 
0.858867 0.000421473 i 
0.85888 0.000420301 i 
0.858893 0.000419131 i 
0.858906 0.000417962 i 
0.858919 0.000416794 i 
0.858932 0.000415627 i 
0.858945 0.000414461 i 
0.858958 0.000413296 i 
0.85897 0.000412132 i 
0.858983 0.000410969 i 
0.858996 0.000409807 i 
0.859009 0.000408646 i 
0.859022 0.000407487 i 
0.859035 0.000406328 i 
0.859048 0.000405171 i 
0.859061 0.000404014 i 
0.859074 0.000402859 i 
0.859087 0.000401705 i 
0.8591 0.000400552 i 
0.859113 0.000399399 i 
0.859126 0.000398248 i 
0.859139 0.000397098 i 
0.859152 0.00039595 i 
0.859165 0.000394802 i 
0.859178 0.000393655 i 
0.859191 0.00039251 i 
0.859204 0.000391365 i 
0.859217 0.000390222 i 
0.85923 0.000389079 i 
0.859243 0.000387938 i 
0.859256 0.000386798 i 
0.859269 0.000385659 i 
0.859282 0.000384521 i 
0.859295 0.000383384 i 
0.859308 0.000382248 i 
0.859321 0.000381113 i 
0.859334 0.00037998 i 
0.859347 0.000378847 i 
0.85936 0.000377716 i 
0.859373 0.000376585 i 
0.859386 0.000375456 i 
0.859399 0.000374328 i 
0.859412 0.000373201 i 
0.859425 0.000372075 i 
0.859438 0.000370951 i 
0.859451 0.000369827 i 
0.859464 0.000368704 i 
0.859477 0.000367583 i 
0.859491 0.000366463 i 
0.859504 0.000365343 i 
0.859517 0.000364225 i 
0.85953 0.000363108 i 
0.859543 0.000361992 i 
0.859556 0.000360878 i 
0.859569 0.000359764 i 
0.859582 0.000358651 i 
0.859595 0.00035754 i 
0.859608 0.00035643 i 
0.859621 0.000355321 i 
0.859634 0.000354213 i 
0.859647 0.000353106 i 
0.85966 0.000352 i 
0.859673 0.000350895 i 
0.859686 0.000349792 i 
0.859699 0.00034869 i 
0.859712 0.000347588 i 
0.859725 0.000346488 i 
0.859738 0.000345389 i 
0.859751 0.000344291 i 
0.859764 0.000343195 i 
0.859777 0.000342099 i 
0.85979 0.000341005 i 
0.859803 0.000339912 i 
0.859816 0.00033882 i 
0.859829 0.000337729 i 
0.859843 0.000336639 i 
0.859856 0.00033555 i 
0.859869 0.000334463 i 
0.859882 0.000333376 i 
0.859895 0.000332291 i 
0.859908 0.000331207 i 
0.859921 0.000330124 i 
0.859934 0.000329042 i 
0.859947 0.000327962 i 
0.85996 0.000326882 i 
0.859973 0.000325804 i 
0.859986 0.000324727 i 
0.859999 0.000323651 i 
0.860012 0.000322576 i 
0.860025 0.000321503 i 
0.860038 0.00032043 i 
0.860052 0.000319359 i 
0.860065 0.000318289 i 
0.860078 0.00031722 i 
0.860091 0.000316152 i 
0.860104 0.000315086 i 
0.860117 0.00031402 i 
0.86013 0.000312956 i 
0.860143 0.000311893 i 
0.860156 0.000310831 i 
0.860169 0.00030977 i 
0.860182 0.000308711 i 
0.860195 0.000307653 i 
0.860208 0.000306596 i 
0.860222 0.00030554 i 
0.860235 0.000304485 i 
0.860248 0.000303431 i 
0.860261 0.000302379 i 
0.860274 0.000301328 i 
0.860287 0.000300278 i 
0.8603 0.000299229 i 
0.860313 0.000298181 i 
0.860326 0.000297135 i 
0.860339 0.00029609 i 
0.860352 0.000295046 i 
0.860366 0.000294003 i 
0.860379 0.000292962 i 
0.860392 0.000291921 i 
0.860405 0.000290882 i 
0.860418 0.000289844 i 
0.860431 0.000288807 i 
0.860444 0.000287772 i 
0.860457 0.000286738 i 
0.86047 0.000285705 i 
0.860484 0.000284673 i 
0.860497 0.000283642 i 
0.86051 0.000282613 i 
0.860523 0.000281585 i 
0.860536 0.000280558 i 
0.860549 0.000279532 i 
0.860562 0.000278507 i 
0.860575 0.000277484 i 
0.860588 0.000276462 i 
0.860602 0.000275441 i 
0.860615 0.000274422 i 
0.860628 0.000273403 i 
0.860641 0.000272386 i 
0.860654 0.00027137 i 
0.860667 0.000270356 i 
0.86068 0.000269342 i 
0.860693 0.00026833 i 
0.860707 0.000267319 i 
0.86072 0.00026631 i 
0.860733 0.000265301 i 
0.860746 0.000264294 i 
0.860759 0.000263288 i 
0.860772 0.000262284 i 
0.860785 0.00026128 i 
0.860799 0.000260278 i 
0.860812 0.000259277 i 
0.860825 0.000258278 i 
0.860838 0.00025728 i 
0.860851 0.000256282 i 
0.860864 0.000255287 i 
0.860877 0.000254292 i 
0.860891 0.000253299 i 
0.860904 0.000252307 i 
0.860917 0.000251316 i 
0.86093 0.000250327 i 
0.860943 0.000249339 i 
0.860956 0.000248352 i 
0.860969 0.000247366 i 
0.860983 0.000246382 i 
0.860996 0.000245399 i 
0.861009 0.000244417 i 
0.861022 0.000243437 i 
0.861035 0.000242458 i 
0.861048 0.00024148 i 
0.861062 0.000240503 i 
0.861075 0.000239528 i 
0.861088 0.000238554 i 
0.861101 0.000237581 i 
0.861114 0.00023661 i 
0.861127 0.00023564 i 
0.861141 0.000234671 i 
0.861154 0.000233704 i 
0.861167 0.000232738 i 
0.86118 0.000231773 i 
0.861193 0.000230809 i 
0.861207 0.000229847 i 
0.86122 0.000228886 i 
0.861233 0.000227927 i 
0.861246 0.000226968 i 
0.861259 0.000226011 i 
0.861272 0.000225056 i 
0.861286 0.000224102 i 
0.861299 0.000223149 i 
0.861312 0.000222197 i 
0.861325 0.000221247 i 
0.861338 0.000220298 i 
0.861352 0.00021935 i 
0.861365 0.000218404 i 
0.861378 0.000217459 i 
0.861391 0.000216516 i 
0.861404 0.000215573 i 
0.861418 0.000214632 i 
0.861431 0.000213693 i 
0.861444 0.000212755 i 
0.861457 0.000211818 i 
0.86147 0.000210882 i 
0.861484 0.000209948 i 
0.861497 0.000209016 i 
0.86151 0.000208084 i 
0.861523 0.000207154 i 
0.861536 0.000206226 i 
0.86155 0.000205298 i 
0.861563 0.000204372 i 
0.861576 0.000203448 i 
0.861589 0.000202525 i 
0.861603 0.000201603 i 
0.861616 0.000200683 i 
0.861629 0.000199764 i 
0.861642 0.000198846 i 
0.861655 0.00019793 i 
0.861669 0.000197015 i 
0.861682 0.000196101 i 
0.861695 0.000195189 i 
0.861708 0.000194279 i 
0.861722 0.000193369 i 
0.861735 0.000192461 i 
0.861748 0.000191555 i 
0.861761 0.00019065 i 
0.861775 0.000189746 i 
0.861788 0.000188844 i 
0.861801 0.000187943 i 
0.861814 0.000187044 i 
0.861827 0.000186146 i 
0.861841 0.000185249 i 
0.861854 0.000184354 i 
0.861867 0.00018346 i 
0.86188 0.000182568 i 
0.861894 0.000181677 i 
0.861907 0.000180788 i 
0.86192 0.0001799 i 
0.861933 0.000179013 i 
0.861947 0.000178128 i 
0.86196 0.000177244 i 
0.861973 0.000176362 i 
0.861987 0.000175481 i 
0.862 0.000174602 i 
0.862013 0.000173724 i 
0.862026 0.000172848 i 
0.86204 0.000171973 i 
0.862053 0.000171099 i 
0.862066 0.000170227 i 
0.862079 0.000169357 i 
0.862093 0.000168487 i 
0.862106 0.00016762 i 
0.862119 0.000166754 i 
0.862132 0.000165889 i 
0.862146 0.000165026 i 
0.862159 0.000164164 i 
0.862172 0.000163304 i 
0.862186 0.000162445 i 
0.862199 0.000161588 i 
0.862212 0.000160732 i 
0.862225 0.000159878 i 
0.862239 0.000159025 i 
0.862252 0.000158173 i 
0.862265 0.000157324 i 
0.862279 0.000156475 i 
0.862292 0.000155629 i 
0.862305 0.000154783 i 
0.862319 0.00015394 i 
0.862332 0.000153097 i 
0.862345 0.000152257 i 
0.862358 0.000151417 i 
0.862372 0.00015058 i 
0.862385 0.000149744 i 
0.862398 0.000148909 i 
0.862412 0.000148076 i 
0.862425 0.000147245 i 
0.862438 0.000146415 i 
0.862452 0.000145586 i 
0.862465 0.000144759 i 
0.862478 0.000143934 i 
0.862492 0.00014311 i 
0.862505 0.000142288 i 
0.862518 0.000141467 i 
0.862532 0.000140648 i 
0.862545 0.000139831 i 
0.862558 0.000139015 i 
0.862572 0.0001382 i 
0.862585 0.000137387 i 
0.862598 0.000136576 i 
0.862611 0.000135767 i 
0.862625 0.000134959 i 
0.862638 0.000134152 i 
0.862652 0.000133347 i 
0.862665 0.000132544 i 
0.862678 0.000131742 i 
0.862692 0.000130942 i 
0.862705 0.000130144 i 
0.862718 0.000129347 i 
0.862732 0.000128552 i 
0.862745 0.000127758 i 
0.862758 0.000126966 i 
0.862772 0.000126176 i 
0.862785 0.000125387 i 
0.862798 0.0001246 i 
0.862812 0.000123814 i 
0.862825 0.00012303 i 
0.862838 0.000122248 i 
0.862852 0.000121468 i 
0.862865 0.000120689 i 
0.862878 0.000119911 i 
0.862892 0.000119136 i 
0.862905 0.000118362 i 
0.862919 0.00011759 i 
0.862932 0.000116819 i 
0.862945 0.00011605 i 
0.862959 0.000115283 i 
0.862972 0.000114517 i 
0.862985 0.000113753 i 
0.862999 0.000112991 i 
0.863012 0.000112231 i 
0.863026 0.000111472 i 
0.863039 0.000110715 i 
0.863052 0.000109959 i 
0.863066 0.000109206 i 
0.863079 0.000108454 i 
0.863093 0.000107703 i 
0.863106 0.000106955 i 
0.863119 0.000106208 i 
0.863133 0.000105463 i 
0.863146 0.000104719 i 
0.86316 0.000103978 i 
0.863173 0.000103238 i 
0.863186 0.0001025 i 
0.8632 0.000101763 i 
0.863213 0.000101029 i 
0.863227 0.000100296 i 
0.86324 9.95645e-05 i 
0.863253 9.88352e-05 i 
0.863267 9.81076e-05 i 
0.86328 9.73818e-05 i 
0.863294 9.66577e-05 i 
0.863307 9.59355e-05 i 
0.86332 9.5215e-05 i 
0.863334 9.44964e-05 i 
0.863347 9.37795e-05 i 
0.863361 9.30644e-05 i 
0.863374 9.23512e-05 i 
0.863388 9.16397e-05 i 
0.863401 9.09301e-05 i 
0.863414 9.02223e-05 i 
0.863428 8.95164e-05 i 
0.863441 8.88122e-05 i 
0.863455 8.81099e-05 i 
0.863468 8.74095e-05 i 
0.863482 8.67109e-05 i 
0.863495 8.60141e-05 i 
0.863509 8.53193e-05 i 
0.863522 8.46262e-05 i 
0.863535 8.39351e-05 i 
0.863549 8.32458e-05 i 
0.863562 8.25584e-05 i 
0.863576 8.18729e-05 i 
0.863589 8.11893e-05 i 
0.863603 8.05075e-05 i 
0.863616 7.98277e-05 i 
0.86363 7.91498e-05 i 
0.863643 7.84738e-05 i 
0.863657 7.77997e-05 i 
0.86367 7.71276e-05 i 
0.863684 7.64573e-05 i 
0.863697 7.5789e-05 i 
0.863711 7.51227e-05 i 
0.863724 7.44583e-05 i 
0.863737 7.37958e-05 i 
0.863751 7.31354e-05 i 
0.863764 7.24768e-05 i 
0.863778 7.18203e-05 i 
0.863791 7.11657e-05 i 
0.863805 7.05131e-05 i 
0.863818 6.98625e-05 i 
0.863832 6.92139e-05 i 
0.863845 6.85674e-05 i 
0.863859 6.79228e-05 i 
0.863872 6.72802e-05 i 
0.863886 6.66397e-05 i 
0.863899 6.60012e-05 i 
0.863913 6.53647e-05 i 
0.863926 6.47302e-05 i 
0.86394 6.40979e-05 i 
0.863953 6.34675e-05 i 
0.863967 6.28393e-05 i 
0.86398 6.22131e-05 i 
0.863994 6.1589e-05 i 
0.864007 6.0967e-05 i 
0.864021 6.0347e-05 i 
0.864035 5.97292e-05 i 
0.864048 5.91135e-05 i 
0.864062 5.84999e-05 i 
0.864075 5.78884e-05 i 
0.864089 5.7279e-05 i 
0.864102 5.66718e-05 i 
0.864116 5.60667e-05 i 
0.864129 5.54638e-05 i 
0.864143 5.48631e-05 i 
0.864156 5.42645e-05 i 
0.86417 5.36681e-05 i 
0.864183 5.30739e-05 i 
0.864197 5.24818e-05 i 
0.864211 5.1892e-05 i 
0.864224 5.13044e-05 i 
0.864238 5.0719e-05 i 
0.864251 5.01359e-05 i 
0.864265 4.95549e-05 i 
0.864278 4.89763e-05 i 
0.864292 4.83998e-05 i 
0.864305 4.78257e-05 i 
0.864319 4.72538e-05 i 
0.864333 4.66842e-05 i 
0.864346 4.61169e-05 i 
0.86436 4.55519e-05 i 
0.864373 4.49892e-05 i 
0.864387 4.44289e-05 i 
0.864401 4.38708e-05 i 
0.864414 4.33151e-05 i 
0.864428 4.27618e-05 i 
0.864441 4.22108e-05 i 
0.864455 4.16622e-05 i 
0.864468 4.1116e-05 i 
0.864482 4.05722e-05 i 
0.864496 4.00308e-05 i 
0.864509 3.94918e-05 i 
0.864523 3.89552e-05 i 
0.864536 3.84211e-05 i 
0.86455 3.78894e-05 i 
0.864564 3.73602e-05 i 
0.864577 3.68334e-05 i 
0.864591 3.63091e-05 i 
0.864605 3.57874e-05 i 
0.864618 3.52681e-05 i 
0.864632 3.47514e-05 i 
0.864645 3.42372e-05 i 
0.864659 3.37256e-05 i 
0.864673 3.32165e-05 i 
0.864686 3.271e-05 i 
0.8647 3.22061e-05 i 
0.864714 3.17047e-05 i 
0.864727 3.1206e-05 i 
0.864741 3.071e-05 i 
0.864755 3.02166e-05 i 
0.864768 2.97258e-05 i 
0.864782 2.92377e-05 i 
0.864796 2.87523e-05 i 
0.864809 2.82696e-05 i 
0.864823 2.77896e-05 i 
0.864836 2.73124e-05 i 
0.86485 2.68379e-05 i 
0.864864 2.63662e-05 i 
0.864878 2.58972e-05 i 
0.864891 2.54311e-05 i 
0.864905 2.49678e-05 i 
0.864919 2.45073e-05 i 
0.864932 2.40497e-05 i 
0.864946 2.35949e-05 i 
0.86496 2.31431e-05 i 
0.864973 2.26941e-05 i 
0.864987 2.22481e-05 i 
0.865001 2.1805e-05 i 
0.865014 2.13649e-05 i 
0.865028 2.09278e-05 i 
0.865042 2.04937e-05 i 
0.865056 2.00627e-05 i 
0.865069 1.96347e-05 i 
0.865083 1.92097e-05 i 
0.865097 1.87879e-05 i 
0.86511 1.83692e-05 i 
0.865124 1.79536e-05 i 
0.865138 1.75412e-05 i 
0.865152 1.7132e-05 i 
0.865165 1.67261e-05 i 
0.865179 1.63234e-05 i 
0.865193 1.59239e-05 i 
0.865207 1.55278e-05 i 
0.86522 1.5135e-05 i 
0.865234 1.47455e-05 i 
0.865248 1.43594e-05 i 
0.865262 1.39768e-05 i 
0.865275 1.35976e-05 i 
0.865289 1.32219e-05 i 
0.865303 1.28497e-05 i 
0.865317 1.24811e-05 i 
0.86533 1.2116e-05 i 
0.865344 1.17546e-05 i 
0.865358 1.13968e-05 i 
0.865372 1.10427e-05 i 
0.865386 1.06924e-05 i 
0.865399 1.03458e-05 i 
0.865413 1.0003e-05 i 
0.865427 9.66415e-06 i 
0.865441 9.32917e-06 i 
0.865455 8.99814e-06 i 
0.865468 8.67112e-06 i 
0.865482 8.34815e-06 i 
0.865496 8.02929e-06 i 
0.86551 7.71458e-06 i 
0.865524 7.40409e-06 i 
0.865538 7.09787e-06 i 
0.865551 6.79599e-06 i 
0.865565 6.4985e-06 i 
0.865579 6.20548e-06 i 
0.865593 5.91699e-06 i 
0.865607 5.63311e-06 i 
0.865621 5.35392e-06 i 
0.865635 5.07949e-06 i 
0.865648 4.80991e-06 i 
0.865662 4.54527e-06 i 
0.865676 4.28566e-06 i 
0.86569 4.03118e-06 i 
0.865704 3.78195e-06 i 
0.865718 3.53806e-06 i 
0.865732 3.29966e-06 i 
0.865746 3.06685e-06 i 
0.86576 2.83979e-06 i 
0.865773 2.61862e-06 i 
0.865787 2.40351e-06 i 
0.865801 2.19463e-06 i 
0.865815 1.99217e-06 i 
0.865829 1.79634e-06 i 
0.865843 1.60739e-06 i 
0.865857 1.42556e-06 i 
0.865871 1.25115e-06 i 
0.865885 1.0845e-06 i 
0.865899 9.2598e-07 i 
0.865913 7.76034e-07 i 
0.865927 6.35186e-07 i 
0.865941 5.04068e-07 i 
0.865955 3.83465e-07 i 
0.865969 2.7439e-07 i 
0.865983 1.78225e-07 i 
0.865997 9.70152e-08 i 
0.866011 3.43007e-08 i 
0.866025 0 i 
